# This file uses centimeters as units for non-parametric coordinates.

mtllib Environment1_Pared.mtl
g default
v -42.778641 5.534322 13.616211
v -16.778492 5.534322 13.616211
v -42.778641 5.972936 13.616211
v -16.778492 5.972936 13.616211
v -42.778641 5.972936 12.616211
v -16.778492 5.972936 12.616211
v -42.778641 5.534322 12.616211
v -16.778492 5.534322 12.616211
v 9.132721 11.575228 -13.361975
v 14.929142 11.575228 -13.361977
v 9.132721 1.713633 -13.361975
v 14.929142 1.713633 -13.361977
v 9.132721 1.713633 -13.456263
v 14.929142 1.713633 -13.456263
v 9.132721 11.575228 -13.456263
v 14.929142 11.575228 -13.456263
v 14.807003 1.713633 -13.456263
v 14.807003 11.575228 -13.456263
v 14.807003 11.575228 -13.361977
v 14.807003 1.713633 -13.361977
v 14.720997 11.575228 13.697441
v 14.720997 1.713633 13.697441
v 14.843136 11.575228 13.697441
v 14.843136 1.713633 13.697441
v 14.843136 11.575228 13.554070
v 14.720997 11.575228 13.554070
v 14.720997 1.713633 13.554070
v 14.843136 1.713633 13.554070
v 4.041824 11.575228 13.554070
v 4.041824 1.713633 13.554070
v 4.041824 11.575228 13.697441
v 4.041824 1.713633 13.697441
v 41.306942 1.713633 13.554070
v 41.306942 11.575228 13.554070
v 41.306942 1.713633 13.697441
v 41.306942 11.575228 13.697441
v 4.162254 1.713633 13.554070
v 4.162254 1.713633 13.697441
v 4.162254 11.575228 13.697441
v 4.162254 11.575228 13.554070
v 4.162254 1.713633 23.735607
v 4.162254 11.575228 23.735607
v 4.041824 1.713633 23.735607
v 4.041824 11.575228 23.735607
v 14.807003 11.575228 -4.146521
v 14.929142 11.575228 -4.146521
v 14.929142 1.713633 -4.146521
v 14.807003 1.713633 -4.421112
v 14.795612 11.575228 3.838934
v 14.917751 11.575228 3.838934
v 14.917751 1.713633 3.838934
v 14.795612 1.713633 4.113525
v 9.132721 4.879027 -13.361975
v 14.807003 4.879027 -13.361975
v 14.807003 5.122962 -4.421112
v 14.795612 5.122962 4.113525
v 14.720997 4.879027 13.554070
v 4.162254 4.879027 13.554070
v 4.041824 4.879027 13.554070
v 4.041824 4.879027 13.697441
v 4.041824 4.879027 23.735607
v 4.162251 4.879027 23.735607
v 4.162251 4.879027 13.697441
v 14.720997 4.879027 13.697441
v 14.843136 4.879027 13.697441
v 41.306942 4.879027 13.697441
v 41.306942 4.879027 13.554070
v 14.843136 4.879027 13.554070
v 14.917751 4.879027 3.838934
v 14.929142 4.879027 -4.146521
v 14.929142 4.879027 -13.361975
v 14.929142 4.879027 -13.456263
v 14.807003 4.879027 -13.456263
v 9.132721 4.879027 -13.456263
v -10.803131 11.575228 -13.361975
v -16.599552 11.575228 -13.361977
v -10.803131 1.713633 -13.361975
v -16.599552 1.713633 -13.361977
v -10.803131 1.713633 -13.456263
v -16.599552 1.713633 -13.456263
v -10.803131 11.575228 -13.456263
v -16.599552 11.575228 -13.456263
v -16.477413 1.713633 -13.456263
v -16.477413 11.575228 -13.456263
v -16.477413 11.575228 -13.361977
v -16.477413 1.713633 -13.361977
v -16.391407 11.575228 13.697441
v -16.391407 1.713633 13.697441
v -16.513546 11.575228 13.697441
v -16.513546 1.713633 13.697441
v -16.513546 11.575228 13.554070
v -16.391407 11.575228 13.554070
v -16.391407 1.713633 13.554070
v -16.513546 1.713633 13.554070
v -5.712234 11.575228 13.554070
v -5.712234 1.713633 13.554070
v -5.712234 11.575228 13.697441
v -5.712234 1.713633 13.697441
v -42.977348 1.713633 13.554070
v -42.977348 11.575228 13.554070
v -42.977348 1.713633 13.697441
v -42.977348 11.575228 13.697441
v -5.832664 1.713633 13.554070
v -5.832664 1.713633 13.697441
v -5.832664 11.575228 13.697441
v -5.832664 11.575228 13.554070
v -5.832664 1.713633 23.735607
v -5.832664 11.575228 23.735607
v -5.712234 1.713633 23.735607
v -5.712234 11.575228 23.735607
v -16.477413 11.575228 -4.146521
v -16.599552 11.575228 -4.146521
v -16.599552 1.713633 -4.146521
v -16.477413 1.713633 -4.486313
v -16.466022 11.575228 3.838934
v -16.588161 11.575228 3.838934
v -16.588161 1.713633 3.838934
v -16.466022 1.713633 4.178727
v -10.803131 4.879027 -13.361975
v -16.477413 4.879027 -13.361975
v -16.477413 5.066661 -4.486313
v -16.466022 5.066661 4.178727
v -16.391407 4.879027 13.554070
v -5.832664 4.879027 13.554070
v -5.712234 4.879027 13.554070
v -5.712234 4.879027 13.697441
v -5.712234 4.879027 23.735607
v -5.832663 4.879027 23.735607
v -5.832663 4.879027 13.697441
v -16.391407 4.879027 13.697441
v -16.513546 4.879027 13.697441
v -42.977348 4.879027 13.697441
v -42.977348 4.879027 13.554070
v -16.513546 4.879027 13.554070
v -16.588161 4.879027 3.838934
v -16.599552 4.879027 -4.146521
v -16.599552 4.879027 -13.361975
v -16.599552 4.879027 -13.456263
v -16.477413 4.879027 -13.456263
v -10.803131 4.879027 -13.456263
v -42.791920 1.975080 4.770813
v -40.626900 1.975080 4.770813
v -42.791920 5.975080 4.770813
v -40.626900 5.975080 -21.052015
v -40.626900 1.975080 -21.052015
v -38.374512 1.975080 -23.304399
v -38.374512 10.039598 -23.304399
v -38.374512 1.975080 -23.304399
v 36.295147 10.006097 -23.304399
v 36.295147 1.977646 -23.304403
v -40.626900 10.073099 -21.052015
v 36.295147 10.006097 -23.304399
v 36.295147 10.013409 -23.304399
v 38.694660 10.013409 -21.020491
v 38.694660 1.982778 -21.020491
v -38.374512 7.413796 -23.304399
v 36.295147 7.299285 -23.304399
v 38.694660 5.988102 -21.020491
v 38.810184 5.980790 4.844893
v 38.810184 1.975466 4.844893
v 40.877224 5.980790 4.839033
v 40.877224 1.975466 4.839033
v -40.626900 5.557205 -21.052015
v -40.626900 5.557205 4.770813
v -42.791920 5.557205 4.770813
v -39.982750 5.975080 4.770813
v -39.982746 5.975080 -21.052015
v -39.982750 5.557205 4.770813
v -39.982746 5.557205 -21.052015
v -38.374512 6.980475 -23.304399
v 36.295147 6.875440 -23.304399
v 38.694660 5.554823 -21.020491
v 38.810184 5.547511 4.844893
v 40.877224 5.547511 4.839033
v 37.888493 5.980790 -21.018202
v 37.888493 5.547511 -21.018202
v 38.004017 5.547511 4.847178
v 38.004017 5.980790 4.847178
v 14.964611 10.006097 -23.304399
v 14.964611 7.302169 -23.304399
v 14.964611 6.868849 -23.304399
v 14.964611 1.975080 -23.304399
v 9.106133 10.006098 -23.304399
v 9.106133 1.975080 -23.304399
v -16.186625 10.006098 -23.304399
v -16.186625 7.413796 -23.304399
v -16.186625 6.980476 -23.304399
v -16.186625 1.975080 -23.304399
v -11.244320 10.006098 -23.304399
v -11.244320 1.975080 -23.304399
v 14.964611 7.302169 -21.930956
v 36.295147 7.302169 -21.930956
v 14.964611 6.868849 -21.930956
v 36.295147 6.868849 -21.930956
v -16.186625 7.413796 -21.906603
v -16.186625 6.980476 -21.906603
v -38.374512 7.413796 -21.906603
v -38.374512 6.980476 -21.906603
v -11.244320 9.261930 -23.304399
v 9.106133 9.261930 -23.304399
v 9.106133 10.006098 -22.153856
v 9.106133 9.261930 -22.153856
v -11.244320 10.006098 -22.153856
v -11.244320 9.261930 -22.153856
v 2.588509 5.363345 -3.309780
v 3.588509 5.363345 -3.309780
v 2.588509 9.166329 -3.309780
v 3.588509 9.166329 -3.309780
v 2.588509 9.961963 -3.309780
v 3.588509 9.961963 -3.309780
v 2.588509 9.961963 -4.509459
v 3.588509 9.961963 -4.509459
v 2.588509 9.961963 -12.048235
v 3.588509 9.961963 -12.048235
v 2.588509 9.961963 -13.247913
v 3.588509 9.961963 -13.247913
v 2.588509 9.166329 -13.247913
v 3.588509 9.166329 -13.247913
v 2.588509 5.363345 -13.247913
v 3.588509 5.363345 -13.247913
v 2.588509 5.363345 -12.048235
v 3.588509 5.363345 -12.048235
v 2.588509 5.363345 -4.509459
v 3.588509 5.363345 -4.509459
v 3.588509 9.166329 -12.048235
v 3.588509 9.166329 -4.509459
v 2.588509 9.166329 -12.048235
v 2.588509 9.166329 -4.509459
v 1.573067 5.363345 -13.247913
v 1.573067 5.363345 -12.048235
v 1.573067 9.166329 -12.048235
v 1.573067 9.166329 -13.247913
v 1.573067 5.363345 -4.509459
v 1.573067 5.363345 -3.309780
v 1.573067 9.166329 -3.309780
v 1.573067 9.166329 -4.509459
v 1.573067 9.961963 -12.048235
v 1.573067 9.961963 -13.247913
v 1.573067 9.961963 -4.509459
v 1.573067 9.961963 -3.309780
v -5.323877 5.363345 -3.309780
v -4.323877 5.363345 -3.309780
v -5.323877 9.166329 -3.309780
v -4.323877 9.166329 -3.309780
v -5.323877 9.961963 -3.309780
v -4.323877 9.961963 -3.309780
v -5.323877 9.961963 -4.509459
v -4.323877 9.961963 -4.509459
v -5.323877 9.961963 -12.048235
v -4.323877 9.961963 -12.048235
v -5.323877 9.961963 -13.247913
v -4.323877 9.961963 -13.247913
v -5.323877 9.166329 -13.247913
v -4.323877 9.166329 -13.247913
v -5.323877 5.363345 -13.247913
v -4.323877 5.363345 -13.247913
v -5.323877 5.363345 -12.048235
v -4.323877 5.363345 -12.048235
v -5.323877 5.363345 -4.509459
v -4.323877 5.363345 -4.509459
v -4.323877 9.166329 -12.048235
v -4.323877 9.166329 -4.509459
v -5.323877 9.166329 -12.048235
v -5.323877 9.166329 -4.509459
v -3.308435 5.363345 -13.247913
v -3.308435 5.363345 -12.048235
v -3.308435 9.166329 -13.247913
v -3.308435 9.166329 -12.048235
v -3.308435 5.363345 -4.509459
v -3.308435 5.363345 -3.309780
v -3.308435 9.166329 -4.509459
v -3.308435 9.166329 -3.309780
v -3.308435 9.961963 -13.247913
v -3.308435 9.961963 -12.048235
v -3.308435 9.961963 -4.509459
v -3.308435 9.961963 -3.309780
v -12.445913 1.713633 -4.486313
v -12.434523 1.713633 4.178727
v -12.445913 5.066661 -4.486313
v -12.434523 5.066661 4.178727
v -13.649517 4.879027 3.838934
v -13.649517 1.713633 3.838934
v -13.660908 4.879027 -4.146521
v -13.660908 1.713633 -4.146521
v 10.317860 1.713633 -4.146521
v 10.306469 1.713633 3.838934
v 10.317860 4.879027 -4.146521
v 10.306469 4.879027 3.838934
v 10.195721 1.713633 -4.421112
v 10.184330 1.713633 4.113525
v 10.184330 5.122962 4.113525
v 10.195721 5.122962 -4.421112
v 14.805706 5.534322 13.616211
v 40.805859 5.534322 13.616211
v 14.805706 5.972936 13.616211
v 40.805859 5.972936 13.616211
v 14.805706 5.972936 12.616211
v 40.805859 5.972936 12.616211
v 14.805706 5.534322 12.616211
v 40.805859 5.534322 12.616211
vt 0.981821 0.115944
vt 0.987697 0.925352
vt 0.974042 0.925451
vt 0.968167 0.116043
vt 0.942912 0.925676
vt 0.937035 0.116269
vt 0.929257 0.925776
vt 0.923381 0.116369
vt 0.898126 0.926002
vt 0.892250 0.116594
vt 0.987923 0.956482
vt 0.974268 0.956581
vt 0.981595 0.084814
vt 0.967941 0.084913
vt 0.054750 0.141873
vt 0.072057 0.120287
vt 0.106759 0.160484
vt 0.090313 0.180425
vt 0.072081 0.119466
vt 0.107234 0.159707
vt 0.825341 0.014039
vt 0.840706 0.037788
vt 0.797625 0.066444
vt 0.782851 0.042988
vt 0.009158 0.174280
vt 0.009926 0.174578
vt 0.045687 0.219233
vt 0.044866 0.219613
vt 0.795987 0.067597
vt 0.781310 0.044154
vt 0.781980 0.043646
vt 0.796700 0.067093
vt 0.054183 0.141166
vt 0.045019 0.220202
vt 0.044304 0.219692
vt 0.581620 0.588818
vt 0.581341 0.588820
vt 0.581302 0.581580
vt 0.581582 0.581579
vt 0.108054 0.159596
vt 0.107926 0.160376
vt 0.122481 0.291185
vt 0.114298 0.244349
vt 0.115263 0.243725
vt 0.123634 0.291323
vt 0.202166 0.332512
vt 0.174298 0.379152
vt 0.146020 0.371756
vt 0.188823 0.298149
vt 0.087678 0.354943
vt 0.086653 0.354365
vt 0.646274 0.272880
vt 0.618839 0.265869
vt 0.640395 0.182856
vt 0.672022 0.183899
vt 0.201833 0.333099
vt 0.175463 0.378687
vt 0.581498 0.565937
vt 0.581500 0.566265
vt 0.581221 0.566266
vt 0.581219 0.565938
vt 0.144287 0.482053
vt 0.143938 0.483532
vt 0.115650 0.471130
vt 0.116148 0.469865
vt 0.581343 0.589148
vt 0.581622 0.589146
vt 0.582561 0.505809
vt 0.554942 0.498331
vt 0.555280 0.497077
vt 0.582899 0.504555
vt 0.144807 0.480902
vt 0.116543 0.468789
vt 0.055566 0.449453
vt 0.054084 0.449786
vt 0.086295 0.354836
vt 0.605730 0.581450
vt 0.605768 0.588689
vt 0.175535 0.379776
vt 0.146133 0.481277
vt 0.520820 0.589471
vt 0.520818 0.589143
vt 0.520780 0.581903
vt 0.520698 0.566589
vt 0.520696 0.566261
vt 0.145154 0.482679
vt 0.080440 0.562497
vt 0.108663 0.571437
vt 0.108352 0.572554
vt 0.080077 0.563596
vt 0.055385 0.450062
vt 0.054968 0.450718
vt 0.628687 0.581328
vt 0.628725 0.588567
vt 0.144650 0.484457
vt 0.109742 0.571846
vt 0.021000 0.539870
vt 0.019879 0.539577
vt 0.714140 0.087499
vt 0.723369 0.117305
vt 0.152581 0.165943
vt 0.153722 0.166103
vt 0.160600 0.205414
vt 0.629491 0.139170
vt 0.677354 0.084942
vt 0.690512 0.109793
vt 0.652033 0.147654
vt 0.234326 0.187483
vt 0.260040 0.264024
vt 0.230905 0.277250
vt 0.201861 0.196408
vt 0.020736 0.541003
vt 0.605648 0.566136
vt 0.628605 0.566013
vt 0.641256 0.520396
vt 0.640918 0.521650
vt 0.703483 0.289780
vt 0.729013 0.213195
vt 0.767156 0.159746
vt 0.829083 0.114874
vt 0.829820 0.114479
vt 0.830769 0.113957
vt 0.873671 0.086622
vt 0.169351 0.603654
vt 0.219185 0.570702
vt 0.231233 0.597515
vt 0.181984 0.632872
vt 0.231551 0.598507
vt 0.182496 0.633771
vt 0.441074 0.524883
vt 0.436327 0.474824
vt 0.463311 0.471633
vt 0.468500 0.521765
vt 0.127268 0.555162
vt 0.179446 0.514708
vt 0.180254 0.515346
vt 0.128049 0.555844
vt 0.463128 0.469693
vt 0.463208 0.470538
vt 0.436293 0.473743
vt 0.436274 0.472909
vt 0.168532 0.604278
vt 0.180975 0.633113
vt 0.178829 0.514485
vt 0.179749 0.514097
vt 0.516613 0.560945
vt 0.543406 0.560632
vt 0.543895 0.602369
vt 0.517101 0.602682
vt 0.232413 0.598003
vt 0.232370 0.598890
vt 0.429046 0.528993
vt 0.370409 0.601477
vt 0.341952 0.581083
vt 0.402093 0.500949
vt 0.395174 0.437416
vt 0.366848 0.468210
vt 0.345488 0.376644
vt 0.379160 0.379327
vt 0.292182 0.454566
vt 0.290874 0.454319
vt 0.275143 0.373289
vt 0.276482 0.373145
vt 0.513041 0.228167
vt 0.472064 0.307560
vt 0.448211 0.288777
vt 0.488836 0.214783
vt 0.394928 0.436264
vt 0.380271 0.380291
vt 0.274017 0.372851
vt 0.274923 0.372940
vt 0.387093 0.261901
vt 0.352874 0.261285
vt 0.353083 0.259784
vt 0.387727 0.261328
vt 0.765044 0.016575
vt 0.765044 0.016575
vt 0.765044 0.016575
vt 0.765044 0.016575
vt 0.623848 0.020701
vt 0.623249 0.021815
vt 0.598684 0.008622
vt 0.599283 0.007508
vt 0.352707 0.262556
vt 0.387467 0.262381
vt 0.276450 0.254333
vt 0.278032 0.254339
vt 0.543406 0.560632
vt 0.516613 0.560945
vt 0.380719 0.379032
vt 0.389024 0.261857
vt 0.765044 0.016575
vt 0.765044 0.016575
vt 0.543895 0.602369
vt 0.517101 0.602682
vt 0.600576 0.601705
vt 0.600576 0.601705
vt 0.600576 0.601705
vt 0.600576 0.601705
vt 0.358852 0.147008
vt 0.358722 0.145673
vt 0.394561 0.148544
vt 0.393396 0.148989
vt 0.276885 0.252637
vt 0.278094 0.251379
vt 0.278187 0.252998
vt 0.543406 0.560632
vt 0.516613 0.560945
vt 0.277143 0.250444
vt 0.288144 0.145930
vt 0.289018 0.146837
vt 0.264460 0.504628
vt 0.265357 0.505595
vt 0.426506 0.394792
vt 0.455838 0.384582
vt 0.285755 0.603460
vt 0.284194 0.603321
vt 0.305359 0.562079
vt 0.427168 0.302626
vt 0.447192 0.315109
vt 0.439575 0.370834
vt 0.412467 0.372065
vt 0.600087 0.559968
vt 0.600087 0.559968
vt 0.600087 0.559968
vt 0.675189 0.049664
vt 0.675788 0.048550
vt 0.564923 0.254735
vt 0.530346 0.326942
vt 0.515550 0.390573
vt 0.519688 0.465403
vt 0.519819 0.466200
vt 0.519985 0.467234
vt 0.525901 0.516364
vt 0.127547 0.556760
vt 0.234026 0.709909
vt 0.195525 0.710685
vt 0.194244 0.647021
vt 0.232734 0.646266
vt 0.691670 0.703844
vt 0.690430 0.640094
vt 0.883380 0.826041
vt 0.849798 0.827397
vt 0.841288 0.565764
vt 0.874618 0.561925
vt 0.793292 0.230502
vt 0.815421 0.191343
vt 0.820403 0.190678
vt 0.810428 0.229578
vt 0.874617 0.561922
vt 0.874708 0.561910
vt 0.816167 0.526931
vt 0.865871 0.519540
vt 0.834480 0.571553
vt 0.837641 0.822709
vt 0.833662 0.821730
vt 0.831895 0.572714
vt 0.824552 0.565649
vt 0.811119 0.526841
vt 0.205954 0.824704
vt 0.208241 0.818135
vt 0.622596 0.811298
vt 0.622593 0.818380
vt 0.635702 0.811318
vt 0.669309 0.811322
vt 0.669308 0.818367
vt 0.635701 0.818363
vt 0.690945 0.721855
vt 0.234425 0.728802
vt 0.234265 0.721340
vt 0.688725 0.714863
vt 0.184481 0.729895
vt 0.184315 0.722465
vt 0.222808 0.721620
vt 0.698443 0.709783
vt 0.822218 0.827200
vt 0.761591 0.827448
vt 0.763291 0.562693
vt 0.769788 0.520338
vt 0.622580 0.798109
vt 0.204139 0.805851
vt 0.203646 0.747697
vt 0.622159 0.740106
vt 0.656192 0.797860
vt 0.655758 0.739829
vt 0.198408 0.811119
vt 0.773568 0.892739
vt 0.775398 0.899553
vt 0.791630 0.938430
vt 0.697929 0.976937
vt 0.692076 0.966164
vt 0.671515 0.849276
vt 0.749279 0.817707
vt 0.683593 0.982722
vt 0.686062 0.994213
vt 0.360630 0.993299
vt 0.364450 0.982414
vt 0.760843 0.228213
vt 0.790768 0.501179
vt 0.758358 0.500042
vt 0.806230 0.497012
vt 0.802448 0.495310
vt 0.801531 0.235303
vt 0.803915 0.237341
vt 0.880936 0.499986
vt 0.818811 0.501579
vt 0.872547 0.222906
vt 0.351477 0.976464
vt 0.273108 0.953003
vt 0.285693 0.916885
vt 0.286557 0.910424
vt 0.299012 0.834703
vt 0.371191 0.853822
vt 0.358343 0.965793
vt 0.036210 0.804800
vt 0.046222 0.794770
vt 0.109070 0.804401
vt 0.104250 0.823454
vt 0.123786 0.805926
vt 0.118651 0.826209
vt 0.142937 0.805039
vt 0.125847 0.782758
vt 0.143825 0.782730
vt 0.122969 0.642756
vt 0.140913 0.641632
vt 0.119848 0.619668
vt 0.138615 0.619122
vt 0.114309 0.600031
vt 0.105545 0.621396
vt 0.100450 0.603544
vt 0.044902 0.633968
vt 0.036459 0.622410
vt 0.041535 0.649551
vt 0.023740 0.644295
vt 0.042279 0.777697
vt 0.024453 0.782969
vt 0.108818 0.643942
vt 0.111574 0.782506
vt 0.185920 0.048147
vt 0.209542 0.037145
vt 0.237432 0.116048
vt 0.213532 0.123959
vt 0.231741 0.027272
vt 0.404132 0.024849
vt 0.387370 0.103776
vt 0.247066 0.097867
vt 0.424264 0.034616
vt 0.447775 0.043929
vt 0.422941 0.126117
vt 0.397996 0.119978
vt 0.238721 0.132862
vt 0.216831 0.139243
vt 0.396453 0.136800
vt 0.419784 0.142501
vt 0.011157 0.627658
vt 0.026983 0.608386
vt 0.094382 0.585577
vt 0.026761 0.819322
vt 0.010157 0.798432
vt 0.098746 0.840904
vt 0.157157 0.618211
vt 0.159182 0.640634
vt 0.108501 0.581711
vt 0.162219 0.782435
vt 0.113056 0.844435
vt 0.161695 0.804826
vt 0.220370 0.879516
vt 0.232065 0.871226
vt 0.250043 0.935591
vt 0.232093 0.940436
vt 0.253360 0.949522
vt 0.233617 0.954787
vt 0.233892 0.973593
vt 0.211317 0.975567
vt 0.210451 0.957579
vt 0.069983 0.976470
vt 0.070218 0.958465
vt 0.047657 0.975248
vt 0.047056 0.956072
vt 0.026822 0.950662
vt 0.029776 0.936279
vt 0.048788 0.941362
vt 0.049386 0.868408
vt 0.059299 0.878565
vt 0.071410 0.856919
vt 0.076452 0.874844
vt 0.210327 0.858175
vt 0.204811 0.875921
vt 0.428057 0.031109
vt 0.452568 0.040669
vt 0.427185 0.126309
vt 0.401200 0.120060
vt 0.227725 0.024531
vt 0.407059 0.021060
vt 0.390056 0.103264
vt 0.244059 0.097890
vt 0.180171 0.046502
vt 0.204685 0.034925
vt 0.234136 0.116857
vt 0.209316 0.125221
vt 0.423992 0.143372
vt 0.399688 0.137570
vt 0.235570 0.134344
vt 0.212832 0.141103
vt 0.070674 0.944174
vt 0.209468 0.943389
vt 0.034963 0.858758
vt 0.056094 0.842401
vt 0.012374 0.930538
vt 0.227170 0.845812
vt 0.246245 0.861939
vt 0.268124 0.929774
vt 0.008647 0.944821
vt 0.070006 0.994894
vt 0.047585 0.994034
vt 0.212050 0.993877
vt 0.234535 0.992175
vt 0.271790 0.943970
vt 0.333900 0.608836
vt 0.308074 0.625783
vt 0.429863 0.460458
vt 0.408143 0.491348
vt 0.240783 0.304013
vt 0.237134 0.332547
vt 0.190299 0.150397
vt 0.203850 0.182151
vt 0.862167 0.181920
vt 0.872544 0.222904
vt 0.763899 0.189174
vt 0.980744 0.119961
vt 0.986619 0.929312
vt 0.972966 0.929411
vt 0.967090 0.120061
vt 0.941837 0.929637
vt 0.935962 0.120286
vt 0.928184 0.929736
vt 0.922308 0.120386
vt 0.897055 0.929962
vt 0.891180 0.120612
vt 0.986845 0.960441
vt 0.973192 0.960540
vt 0.980518 0.088833
vt 0.966864 0.088932
vn 0.000000 0.000000 1.000000
vn 0.000000 0.000000 1.000000
vn 0.000000 0.000000 1.000000
vn 0.000000 0.000000 1.000000
vn 0.000000 1.000000 0.000000
vn 0.000000 1.000000 0.000000
vn 0.000000 1.000000 0.000000
vn 0.000000 1.000000 0.000000
vn 0.000000 0.000000 -1.000000
vn 0.000000 0.000000 -1.000000
vn 0.000000 0.000000 -1.000000
vn 0.000000 0.000000 -1.000000
vn 0.000000 -1.000000 0.000000
vn 0.000000 -1.000000 0.000000
vn 0.000000 -1.000000 0.000000
vn 0.000000 -1.000000 0.000000
vn 1.000000 0.000000 0.000000
vn 1.000000 0.000000 0.000000
vn 1.000000 0.000000 0.000000
vn 1.000000 0.000000 0.000000
vn -1.000000 0.000000 0.000000
vn -1.000000 0.000000 0.000000
vn -1.000000 0.000000 0.000000
vn -1.000000 0.000000 0.000000
vn 0.000000 0.000000 1.000000
vn 0.000000 -0.000000 1.000000
vn 0.000000 -0.000000 1.000000
vn 0.000000 0.000000 1.000000
vn 0.000000 -1.000000 0.000000
vn 0.000000 -1.000000 0.000000
vn 0.000000 -1.000000 0.000000
vn 0.000000 -1.000000 0.000000
vn 0.000000 0.000000 -1.000000
vn 0.000000 0.000000 -1.000000
vn 0.000000 0.000000 -1.000000
vn 0.000000 0.000000 -1.000000
vn 0.000000 1.000000 0.000000
vn 0.000000 1.000000 0.000000
vn 0.000000 1.000000 0.000000
vn 0.000000 1.000000 0.000000
vn 1.000000 0.000000 0.000000
vn 1.000000 0.000000 0.000000
vn 1.000000 0.000000 0.000000
vn 1.000000 0.000000 0.000000
vn -1.000000 0.000000 0.000000
vn -1.000000 0.000000 0.000000
vn -1.000000 0.000000 0.000000
vn -1.000000 0.000000 0.000000
vn 0.000000 0.000000 -1.000000
vn 0.000000 0.000000 -1.000000
vn 0.000000 1.000000 0.000000
vn 0.000000 1.000000 0.000000
vn 0.000000 0.000000 1.000000
vn 0.000000 0.000000 1.000000
vn 0.000000 0.000000 1.000000
vn 0.000000 0.000000 1.000000
vn 0.000000 -1.000000 0.000000
vn 0.000000 -1.000000 0.000000
vn 0.000000 1.000000 0.000000
vn 0.000000 1.000000 0.000000
vn 0.000000 1.000000 0.000000
vn 0.000000 1.000000 0.000000
vn -0.999969 0.000000 -0.007903
vn -0.999969 0.000000 -0.007903
vn -0.999969 -0.000108 -0.007830
vn -0.999985 -0.000072 -0.005569
vn 0.000000 1.000000 0.000000
vn 0.000000 1.000000 0.000000
vn 0.999970 0.000000 0.007680
vn 0.999970 0.000000 0.007680
vn 0.999970 0.000000 0.007680
vn 0.999985 0.000000 0.005440
vn 0.000000 -1.000000 0.000000
vn 0.000000 -1.000000 0.000000
vn 0.000000 -1.000000 0.000000
vn 0.000000 -1.000000 0.000000
vn 0.000000 1.000000 0.000000
vn 0.000000 1.000000 0.000000
vn -1.000000 0.000000 0.000000
vn -1.000000 0.000000 0.000000
vn -1.000000 0.000000 0.000000
vn -1.000000 0.000000 0.000000
vn 0.000000 -1.000000 0.000000
vn 0.000000 -1.000000 0.000000
vn 1.000000 0.000000 0.000000
vn 1.000000 0.000000 0.000000
vn 1.000000 0.000000 0.000000
vn 1.000000 0.000000 0.000000
vn 0.000000 0.000000 -1.000000
vn 0.000000 0.000000 -1.000000
vn 0.000000 0.000000 -1.000000
vn 0.000000 0.000000 -1.000000
vn 0.000000 1.000000 0.000000
vn 0.000000 1.000000 0.000000
vn 0.000000 1.000000 0.000000
vn 0.000000 1.000000 0.000000
vn 0.000000 0.000000 1.000000
vn 0.000000 0.000000 1.000000
vn 0.000000 0.000000 1.000000
vn 0.000000 0.000000 1.000000
vn 0.000000 -1.000000 0.000000
vn 0.000000 -1.000000 0.000000
vn 0.000000 -1.000000 0.000000
vn 0.000000 -1.000000 0.000000
vn 0.000000 0.000000 -1.000000
vn 0.000000 0.000000 -1.000000
vn 0.000000 0.000000 -1.000000
vn 0.000000 0.000000 -1.000000
vn 0.000000 -1.000000 0.000000
vn 0.000000 -1.000000 0.000000
vn 0.000000 -1.000000 0.000000
vn 0.000000 -1.000000 0.000000
vn 0.000000 0.000000 1.000000
vn 0.000000 0.000000 1.000000
vn 0.000000 0.000000 1.000000
vn 0.000000 0.000000 1.000000
vn 0.000000 1.000000 0.000000
vn 0.000000 1.000000 0.000000
vn 0.000000 1.000000 0.000000
vn 0.000000 1.000000 0.000000
vn 0.000000 -1.000000 0.000000
vn 0.000000 -1.000000 0.000000
vn 0.000000 0.000000 1.000000
vn 0.000000 0.000000 1.000000
vn 0.000000 0.000000 1.000000
vn 0.000000 0.000000 1.000000
vn 0.000000 1.000000 0.000000
vn 0.000000 1.000000 0.000000
vn 0.000000 0.000000 -1.000000
vn 0.000000 0.000000 -1.000000
vn 1.000000 0.000000 0.000000
vn 1.000000 0.000001 0.000000
vn 1.000000 0.000001 0.000000
vn 1.000000 0.000000 0.000000
vn 0.000000 -1.000000 0.000000
vn 0.000000 -1.000000 0.000000
vn 0.000000 -1.000000 0.000000
vn 0.000000 -1.000000 0.000000
vn -1.000000 0.000000 0.000000
vn -1.000000 0.000000 0.000000
vn -1.000000 0.000000 0.000000
vn -1.000000 0.000000 0.000000
vn 0.000000 1.000000 0.000000
vn 0.000000 1.000000 0.000000
vn 0.000000 1.000000 0.000000
vn 0.000000 1.000000 0.000000
vn 0.000000 1.000000 0.000000
vn 0.000000 1.000000 0.000000
vn 1.000000 0.000000 0.000000
vn 1.000000 0.000000 0.000000
vn 1.000000 0.000000 0.000000
vn 1.000000 0.000000 0.000528
vn 0.000000 -1.000000 0.000000
vn 0.000000 -1.000000 0.000000
vn 0.000000 -1.000000 0.000000
vn 0.000000 -1.000000 0.000000
vn -1.000000 -0.000000 0.000000
vn -1.000000 -0.000000 0.000000
vn -1.000000 0.000000 -0.000500
vn -1.000000 -0.000000 0.000000
vn 0.999999 0.000000 0.001426
vn 0.999999 0.000000 0.001426
vn 0.999999 0.000000 0.001426
vn 0.999999 0.000000 0.001426
vn -0.999999 0.000000 -0.001335
vn -0.999999 0.000000 -0.001335
vn -0.999999 0.000000 -0.001335
vn -0.999999 0.000000 -0.001335
vn 0.000000 0.000000 1.000000
vn 0.000000 0.000000 1.000000
vn -1.000000 0.000000 -0.000669
vn -1.000000 0.000000 0.000000
vn -0.999989 -0.000086 -0.004766
vn -0.999970 -0.000163 -0.007792
vn 0.000000 0.000000 -1.000000
vn 0.000000 0.000000 -1.000000
vn 0.000000 0.000000 -1.000000
vn -1.000000 0.000000 0.000000
vn -1.000000 0.000000 0.000000
vn -1.000000 0.000000 0.000000
vn -1.000000 0.000000 0.000000
vn 0.000000 0.000000 1.000000
vn 0.000000 0.000000 1.000000
vn 1.000000 -0.000001 0.000000
vn 1.000000 -0.000001 0.000000
vn 0.000000 0.000000 1.000000
vn 0.000000 0.000000 1.000000
vn 0.000000 0.000000 1.000000
vn 0.000000 0.000000 1.000000
vn 0.000000 0.000000 1.000000
vn 0.000000 0.000000 1.000000
vn 1.000000 0.000000 0.000000
vn 1.000000 0.000000 0.000000
vn 0.000000 0.000000 -1.000000
vn 0.000000 0.000000 -1.000000
vn 0.999988 0.000000 0.004859
vn 0.999971 0.000000 0.007680
vn 1.000000 0.000000 0.000662
vn 1.000000 0.000000 0.000000
vn 1.000000 0.000000 0.000000
vn 1.000000 0.000000 0.000000
vn 0.000000 0.000000 -1.000000
vn 0.000000 0.000000 -1.000000
vn 0.000000 0.000000 -1.000000
vn -1.000000 0.000000 0.000000
vn -1.000000 0.000000 0.000000
vn -0.000000 0.000000 1.000000
vn -0.000000 0.000000 1.000000
vn -0.000000 -0.000000 1.000000
vn -0.000000 -0.000000 1.000000
vn 0.000000 -1.000000 0.000000
vn 0.000000 -1.000000 0.000000
vn 0.000000 -1.000000 0.000000
vn 0.000000 -1.000000 0.000000
vn 0.000000 0.000000 -1.000000
vn 0.000000 0.000000 -1.000000
vn 0.000000 0.000000 -1.000000
vn 0.000000 0.000000 -1.000000
vn 0.000000 1.000000 0.000000
vn 0.000000 1.000000 0.000000
vn 0.000000 1.000000 0.000000
vn 0.000000 1.000000 0.000000
vn -1.000000 -0.000000 0.000000
vn -1.000000 0.000000 0.000000
vn -1.000000 0.000000 0.000000
vn -1.000000 0.000000 0.000000
vn 1.000000 0.000000 0.000000
vn 1.000000 0.000000 0.000000
vn 1.000000 0.000000 0.000000
vn 1.000000 0.000000 0.000000
vn 0.000000 0.000000 -1.000000
vn 0.000000 0.000000 -1.000000
vn 0.000000 1.000000 0.000000
vn 0.000000 1.000000 0.000000
vn 0.000000 0.000000 1.000000
vn 0.000000 0.000000 1.000000
vn 0.000000 0.000000 1.000000
vn 0.000000 0.000000 1.000000
vn 0.000000 -1.000000 0.000000
vn 0.000000 -1.000000 0.000000
vn 0.999999 0.000000 -0.001315
vn 0.999999 0.000000 -0.001315
vn 0.999999 0.000000 -0.001315
vn 0.999999 0.000000 -0.001315
vn 0.999968 0.000000 -0.007958
vn 0.999985 -0.000089 -0.005571
vn 0.999969 -0.000134 -0.007865
vn 0.999968 0.000000 -0.007958
vn 0.000000 1.000000 -0.000000
vn 0.000000 1.000000 -0.000000
vn 0.000000 1.000000 0.000000
vn 0.000000 1.000000 0.000000
vn -0.999970 0.000000 0.007680
vn -0.999985 0.000000 0.005440
vn -0.999970 0.000000 0.007680
vn -0.999970 0.000000 0.007680
vn 0.000000 -1.000000 0.000000
vn 0.000000 -1.000000 0.000000
vn 0.000000 -1.000000 0.000000
vn 0.000000 -1.000000 0.000000
vn 0.000000 1.000000 0.000000
vn 0.000000 1.000000 0.000000
vn 1.000000 0.000000 0.000000
vn 1.000000 0.000000 0.000000
vn 1.000000 0.000000 0.000000
vn 1.000000 0.000000 0.000000
vn 0.000000 -1.000000 0.000000
vn 0.000000 -1.000000 0.000000
vn -1.000000 0.000000 0.000000
vn -1.000000 0.000000 0.000000
vn -1.000000 0.000000 0.000000
vn -1.000000 0.000000 0.000000
vn 0.000000 0.000000 -1.000000
vn 0.000000 0.000000 -1.000000
vn 0.000000 0.000000 -1.000000
vn 0.000000 0.000000 -1.000000
vn 0.000000 1.000000 0.000000
vn 0.000000 1.000000 0.000000
vn 0.000000 1.000000 0.000000
vn 0.000000 1.000000 0.000000
vn 0.000000 0.000000 1.000000
vn 0.000000 0.000000 1.000000
vn 0.000000 0.000000 1.000000
vn 0.000000 0.000000 1.000000
vn 0.000000 -1.000000 0.000000
vn 0.000000 -1.000000 0.000000
vn 0.000000 -1.000000 0.000000
vn 0.000000 -1.000000 0.000000
vn 0.000000 0.000000 -1.000000
vn 0.000000 0.000000 -1.000000
vn 0.000000 0.000000 -1.000000
vn 0.000000 0.000000 -1.000000
vn 0.000000 -1.000000 0.000000
vn 0.000000 -1.000000 0.000000
vn 0.000000 -1.000000 0.000000
vn 0.000000 -1.000000 0.000000
vn 0.000000 0.000000 1.000000
vn 0.000000 0.000000 1.000000
vn 0.000000 0.000000 1.000000
vn 0.000000 0.000000 1.000000
vn 0.000000 1.000000 0.000000
vn 0.000000 1.000000 0.000000
vn 0.000000 1.000000 0.000000
vn 0.000000 1.000000 0.000000
vn 0.000000 -1.000000 0.000000
vn 0.000000 -1.000000 0.000000
vn 0.000000 0.000000 1.000000
vn 0.000000 0.000000 1.000000
vn 0.000000 0.000000 1.000000
vn 0.000000 0.000000 1.000000
vn 0.000000 1.000000 0.000000
vn 0.000000 1.000000 0.000000
vn 0.000000 0.000000 -1.000000
vn 0.000000 0.000000 -1.000000
vn -1.000000 0.000000 0.000000
vn -1.000000 0.000000 0.000000
vn -1.000000 0.000001 0.000000
vn -1.000000 0.000001 0.000000
vn 0.000000 -1.000000 0.000000
vn 0.000000 -1.000000 0.000000
vn 0.000000 -1.000000 0.000000
vn 0.000000 -1.000000 0.000000
vn 1.000000 0.000000 0.000000
vn 1.000000 0.000000 0.000000
vn 1.000000 0.000000 0.000000
vn 1.000000 0.000000 0.000000
vn 0.000000 1.000000 0.000000
vn 0.000000 1.000000 0.000000
vn 0.000000 1.000000 0.000000
vn 0.000000 1.000000 0.000000
vn 0.000000 1.000000 0.000000
vn 0.000000 1.000000 0.000000
vn 0.000000 1.000000 -0.000000
vn 0.000000 1.000000 -0.000000
vn -1.000000 0.000000 0.000000
vn -1.000000 0.000000 0.000528
vn -1.000000 0.000000 0.000000
vn -1.000000 0.000000 0.000000
vn 0.000000 -1.000000 0.000000
vn 0.000000 -1.000000 0.000000
vn 0.000000 -1.000000 0.000000
vn 0.000000 -1.000000 0.000000
vn 1.000000 -0.000001 0.000000
vn 1.000000 -0.000000 0.000000
vn 1.000000 -0.000000 -0.000500
vn 1.000000 -0.000001 0.000000
vn -0.999999 0.000000 0.001426
vn -0.999999 0.000000 0.001426
vn -0.999999 0.000000 0.001426
vn -0.999999 0.000000 0.001426
vn -0.000000 0.000000 1.000000
vn -0.000000 0.000000 1.000000
vn 1.000000 0.000000 0.000000
vn 1.000000 0.000000 -0.000674
vn 0.999989 -0.000105 -0.004730
vn 0.999969 -0.000201 -0.007819
vn 0.000000 0.000000 -1.000000
vn 0.000000 0.000000 -1.000000
vn 0.000000 0.000000 -1.000000
vn 1.000000 0.000000 0.000000
vn 1.000000 0.000000 0.000000
vn 1.000000 0.000000 0.000000
vn 1.000000 0.000000 0.000000
vn 0.000000 0.000000 1.000000
vn 0.000000 0.000000 1.000000
vn -1.000000 -0.000000 0.000000
vn -1.000000 -0.000000 0.000000
vn 0.000000 0.000000 1.000000
vn 0.000000 0.000000 1.000000
vn 0.000000 0.000000 1.000000
vn 0.000000 0.000000 1.000000
vn 0.000000 0.000000 1.000000
vn 0.000000 0.000000 1.000000
vn -1.000000 0.000000 0.000000
vn -1.000000 0.000000 0.000000
vn 0.000000 0.000000 -1.000000
vn 0.000000 0.000000 -1.000000
vn -0.999988 0.000000 0.004859
vn -0.999971 0.000000 0.007680
vn -1.000000 0.000000 0.000662
vn -1.000000 0.000000 0.000000
vn -1.000000 -0.000000 0.000000
vn -1.000000 -0.000000 0.000000
vn 0.000000 0.000000 -1.000000
vn 0.000000 0.000000 -1.000000
vn 0.000000 0.000000 -1.000000
vn 1.000000 0.000000 0.000000
vn 1.000000 0.000000 0.000000
vn 0.000000 0.000000 1.000000
vn 0.000000 0.000000 1.000000
vn 0.000000 0.000000 1.000000
vn 0.000000 0.000000 1.000000
vn 1.000000 0.000000 0.000000
vn 1.000000 0.000000 0.000000
vn 1.000000 0.000000 0.000000
vn 1.000000 0.000000 0.000000
vn -0.000000 0.000000 1.000000
vn -0.000000 0.000000 1.000000
vn 0.000000 0.000000 1.000000
vn 0.000000 0.000000 1.000000
vn 0.707106 0.000000 0.707107
vn 0.707106 0.000000 0.707107
vn 0.707106 0.000000 0.707107
vn 0.707106 0.000000 0.707107
vn 0.000000 0.000000 0.000000
vn 0.000000 0.000000 0.000000
vn 0.000000 0.000000 0.000000
vn -1.000000 0.000000 0.000000
vn -0.000000 0.000000 0.000000
vn -0.000000 0.000000 0.000000
vn -0.689443 0.000000 0.724340
vn -0.689443 0.000000 0.724340
vn -0.689443 0.000000 0.724340
vn -0.689443 0.000000 0.724340
vn 0.000000 0.000000 1.000000
vn 0.000000 0.000000 1.000000
vn 0.000000 0.000000 1.000000
vn 0.000000 0.000000 1.000000
vn -0.689443 -0.000000 0.724340
vn -0.991484 0.000000 0.130232
vn -0.999990 0.000000 0.004466
vn -0.999990 0.000000 0.004466
vn -0.999990 0.000000 0.004466
vn -0.999990 0.000000 0.004466
vn 0.002835 -0.000000 0.999996
vn 0.002835 -0.000000 0.999996
vn 0.002835 -0.000001 0.999996
vn 0.002835 -0.000001 0.999996
vn 0.002835 -0.000001 0.999996
vn 0.002835 -0.000001 0.999996
vn 1.000000 0.000000 0.000000
vn 1.000000 0.000000 0.000000
vn 1.000000 0.000000 0.000000
vn 1.000000 0.000000 0.000000
vn 0.000000 0.000000 1.000000
vn 0.000000 0.000000 1.000000
vn 0.000000 0.000000 1.000000
vn 0.000000 -1.000000 0.000000
vn 0.000000 -1.000000 0.000000
vn 0.000000 -1.000000 0.000000
vn 0.000000 -1.000000 0.000000
vn 0.000000 0.000000 -1.000000
vn 0.000000 0.000000 -1.000000
vn 0.000000 0.000000 -1.000000
vn 0.000000 0.000000 -1.000000
vn 0.000000 -0.000000 1.000000
vn 0.000000 -0.000000 1.000000
vn 0.000000 -0.000000 1.000000
vn 0.000000 -0.000000 1.000000
vn -0.689443 -0.000001 0.724340
vn -0.994668 0.000000 0.103125
vn -0.999990 0.000000 0.004466
vn -0.999990 0.000000 0.004466
vn 0.002835 0.000000 0.999996
vn 0.002835 0.000000 0.999996
vn -0.002837 0.000000 -0.999996
vn -0.002837 0.000000 -0.999996
vn -0.002837 0.000000 -0.999996
vn -0.002837 0.000000 -0.999996
vn 0.004535 -0.999990 -0.000162
vn 0.004535 -0.999990 -0.000162
vn 0.004535 -0.999990 -0.000162
vn 0.004535 -0.999990 -0.000162
vn -0.000000 0.000000 1.000000
vn -0.000000 0.000000 1.000000
vn -0.000000 0.000000 1.000000
vn 0.000000 0.000000 1.000000
vn 0.000000 0.000000 1.000000
vn 0.000000 0.000000 1.000000
vn 0.000000 0.000000 1.000000
vn -0.000000 0.000000 1.000000
vn -0.000000 0.000000 1.000000
vn 0.000000 0.000000 1.000000
vn 0.000000 0.000000 1.000000
vn 0.000000 0.000000 1.000000
vn 0.000000 0.000000 1.000000
vn 0.000000 0.000000 1.000000
vn 0.000000 0.000000 1.000000
vn 0.000000 0.000000 1.000000
vn 0.000000 0.000000 1.000000
vn -0.000000 0.000000 1.000000
vn -0.000000 0.000000 1.000000
vn 0.000000 0.000000 1.000000
vn 0.000000 0.000000 1.000000
vn 0.000000 0.000000 1.000000
vn 0.000068 0.999999 -0.001049
vn 0.000068 0.999999 -0.001049
vn 0.000068 0.999999 -0.001049
vn 0.000068 0.999999 -0.001049
vn -1.000000 0.000000 0.000000
vn -1.000000 0.000000 0.000000
vn -1.000000 0.000000 0.000000
vn -1.000000 0.000000 0.000000
vn 0.000154 -0.999997 -0.002400
vn 0.000154 -0.999997 -0.002400
vn 0.000154 -0.999997 -0.002400
vn 0.000154 -0.999997 -0.002400
vn 1.000000 0.000000 0.000000
vn 1.000000 0.000000 0.000000
vn 1.000000 0.000000 0.000000
vn 1.000000 0.000000 0.000000
vn 1.000000 0.000000 0.000000
vn 1.000000 0.000000 0.000000
vn 1.000000 0.000000 0.000000
vn 1.000000 0.000000 0.000000
vn 0.000000 1.000000 0.000000
vn 0.000000 1.000000 0.000000
vn 0.000000 1.000000 0.000000
vn 0.000000 1.000000 0.000000
vn -1.000000 0.000000 0.000000
vn -1.000000 0.000000 0.000000
vn -1.000000 0.000000 0.000000
vn -1.000000 0.000000 0.000000
vn 0.000000 -1.000000 0.000000
vn 0.000000 -1.000000 0.000000
vn 0.000000 -1.000000 0.000000
vn 0.000000 -1.000000 0.000000
vn 1.000000 0.000000 0.000000
vn 1.000000 0.000000 0.000000
vn 1.000000 0.000000 0.000000
vn 1.000000 0.000000 0.000000
vn -1.000000 0.000000 0.000000
vn -1.000000 0.000000 0.000000
vn -1.000000 0.000000 0.000000
vn -1.000000 0.000000 0.000000
vn 0.000000 -1.000000 0.000000
vn 0.000000 -1.000000 0.000000
vn 0.000000 -1.000000 0.000000
vn 0.000000 -1.000000 0.000000
vn 0.000000 0.000000 1.000000
vn 0.000000 0.000000 1.000000
vn 0.000000 0.000000 1.000000
vn 0.000000 0.000000 1.000000
vn 0.000000 0.000000 1.000000
vn 0.000000 0.000000 1.000000
vn 0.000000 1.000000 0.000000
vn 0.000000 1.000000 0.000000
vn 0.000000 1.000000 0.000000
vn 0.000000 1.000000 0.000000
vn 0.000000 1.000000 0.000000
vn 0.000000 1.000000 0.000000
vn 0.000000 1.000000 0.000000
vn 0.000000 1.000000 0.000000
vn 0.000000 0.000000 -1.000000
vn 0.000000 0.000000 -1.000000
vn 0.000000 0.000000 -1.000000
vn 0.000000 0.000000 -1.000000
vn 0.000000 0.000000 -1.000000
vn 0.000000 0.000000 -1.000000
vn 0.000000 -1.000000 0.000000
vn 0.000000 -1.000000 0.000000
vn 0.000000 -1.000000 0.000000
vn 0.000000 -1.000000 0.000000
vn 0.000000 -1.000000 0.000000
vn 0.000000 -1.000000 0.000000
vn 0.000000 -1.000000 0.000000
vn 0.000000 -1.000000 0.000000
vn 1.000000 0.000000 0.000000
vn 1.000000 0.000000 0.000000
vn 1.000000 0.000000 0.000000
vn 1.000000 0.000000 0.000000
vn 1.000000 0.000000 0.000000
vn 1.000000 0.000000 0.000000
vn 1.000000 0.000000 0.000000
vn 1.000000 0.000000 0.000000
vn 1.000000 0.000000 0.000000
vn 1.000000 0.000000 0.000000
vn 1.000000 0.000000 0.000000
vn 1.000000 0.000000 0.000000
vn -1.000000 0.000000 0.000000
vn -1.000000 0.000000 0.000000
vn -1.000000 0.000000 0.000000
vn -1.000000 0.000000 0.000000
vn -1.000000 0.000000 0.000000
vn -1.000000 0.000000 0.000000
vn -1.000000 0.000000 0.000000
vn -1.000000 0.000000 0.000000
vn -1.000000 0.000000 0.000000
vn -1.000000 0.000000 0.000000
vn -1.000000 0.000000 0.000000
vn -1.000000 0.000000 0.000000
vn -1.000000 0.000000 0.000000
vn -1.000000 0.000000 0.000000
vn -1.000000 0.000000 0.000000
vn -1.000000 0.000000 0.000000
vn 0.000000 -1.000000 0.000000
vn 0.000000 -1.000000 0.000000
vn 0.000000 -1.000000 0.000000
vn 0.000000 -1.000000 0.000000
vn 0.000000 0.000000 1.000000
vn 0.000000 0.000000 1.000000
vn 0.000000 0.000000 1.000000
vn 0.000000 0.000000 1.000000
vn 0.000000 0.000000 -1.000000
vn 0.000000 0.000000 -1.000000
vn 0.000000 0.000000 -1.000000
vn 0.000000 0.000000 -1.000000
vn 0.000000 -1.000000 0.000000
vn 0.000000 -1.000000 0.000000
vn 0.000000 -1.000000 0.000000
vn 0.000000 -1.000000 0.000000
vn 0.000000 0.000000 1.000000
vn 0.000000 0.000000 1.000000
vn 0.000000 0.000000 1.000000
vn 0.000000 0.000000 1.000000
vn 0.000000 0.000000 -1.000000
vn 0.000000 0.000000 -1.000000
vn 0.000000 0.000000 -1.000000
vn 0.000000 0.000000 -1.000000
vn 0.000000 1.000000 0.000000
vn 0.000000 1.000000 0.000000
vn 0.000000 1.000000 0.000000
vn 0.000000 1.000000 0.000000
vn 0.000000 0.000000 -1.000000
vn 0.000000 0.000000 -1.000000
vn 0.000000 0.000000 -1.000000
vn 0.000000 0.000000 -1.000000
vn 0.000000 -1.000000 0.000000
vn 0.000000 -1.000000 0.000000
vn 0.000000 -1.000000 0.000000
vn 0.000000 -1.000000 0.000000
vn 0.000000 1.000000 0.000000
vn 0.000000 1.000000 0.000000
vn 0.000000 1.000000 0.000000
vn 0.000000 1.000000 0.000000
vn 0.000000 0.000000 1.000000
vn 0.000000 0.000000 1.000000
vn 0.000000 0.000000 1.000000
vn 0.000000 0.000000 1.000000
vn 0.000000 1.000000 0.000000
vn 0.000000 1.000000 0.000000
vn 0.000000 1.000000 0.000000
vn 0.000000 1.000000 0.000000
vn 0.000000 0.000000 1.000000
vn 0.000000 0.000000 1.000000
vn 0.000000 0.000000 1.000000
vn 0.000000 0.000000 1.000000
vn 0.000000 0.000000 1.000000
vn 0.000000 0.000000 1.000000
vn 0.000000 1.000000 0.000000
vn 0.000000 1.000000 0.000000
vn 0.000000 1.000000 0.000000
vn 0.000000 1.000000 0.000000
vn 0.000000 1.000000 0.000000
vn 0.000000 1.000000 0.000000
vn 0.000000 1.000000 0.000000
vn 0.000000 1.000000 0.000000
vn 0.000000 0.000000 -1.000000
vn 0.000000 0.000000 -1.000000
vn 0.000000 0.000000 -1.000000
vn 0.000000 0.000000 -1.000000
vn 0.000000 0.000000 -1.000000
vn 0.000000 0.000000 -1.000000
vn 0.000000 -1.000000 0.000000
vn 0.000000 -1.000000 0.000000
vn 0.000000 -1.000000 0.000000
vn 0.000000 -1.000000 0.000000
vn 0.000000 -1.000000 0.000000
vn 0.000000 -1.000000 0.000000
vn 0.000000 -1.000000 0.000000
vn 0.000000 -1.000000 0.000000
vn 1.000000 0.000000 0.000000
vn 1.000000 0.000000 0.000000
vn 1.000000 0.000000 0.000000
vn 1.000000 0.000000 0.000000
vn 1.000000 0.000000 0.000000
vn 1.000000 0.000000 0.000000
vn 1.000000 0.000000 0.000000
vn 1.000000 0.000000 0.000000
vn 1.000000 0.000000 0.000000
vn 1.000000 0.000000 0.000000
vn 1.000000 0.000000 0.000000
vn 1.000000 0.000000 0.000000
vn 1.000000 0.000000 0.000000
vn 1.000000 0.000000 0.000000
vn 1.000000 0.000000 0.000000
vn 1.000000 0.000000 0.000000
vn -1.000000 0.000000 0.000000
vn -1.000000 0.000000 0.000000
vn -1.000000 0.000000 0.000000
vn -1.000000 0.000000 0.000000
vn -1.000000 0.000000 0.000000
vn -1.000000 0.000000 0.000000
vn -1.000000 0.000000 0.000000
vn -1.000000 0.000000 0.000000
vn -1.000000 0.000000 0.000000
vn -1.000000 0.000000 0.000000
vn -1.000000 0.000000 0.000000
vn -1.000000 0.000000 0.000000
vn 0.000000 -1.000000 0.000000
vn 0.000000 -1.000000 0.000000
vn 0.000000 -1.000000 0.000000
vn 0.000000 -1.000000 0.000000
vn 0.000000 0.000000 -1.000000
vn 0.000000 0.000000 -1.000000
vn 0.000000 0.000000 -1.000000
vn 0.000000 0.000000 -1.000000
vn 0.000000 0.000000 1.000000
vn 0.000000 0.000000 1.000000
vn 0.000000 0.000000 1.000000
vn 0.000000 0.000000 1.000000
vn 0.000000 -1.000000 0.000000
vn 0.000000 -1.000000 0.000000
vn 0.000000 -1.000000 0.000000
vn 0.000000 -1.000000 0.000000
vn 0.000000 0.000000 -1.000000
vn 0.000000 0.000000 -1.000000
vn 0.000000 0.000000 -1.000000
vn 0.000000 0.000000 -1.000000
vn 0.000000 0.000000 1.000000
vn 0.000000 0.000000 1.000000
vn 0.000000 0.000000 1.000000
vn 0.000000 0.000000 1.000000
vn 0.000000 0.000000 -1.000000
vn 0.000000 0.000000 -1.000000
vn 0.000000 0.000000 -1.000000
vn 0.000000 0.000000 -1.000000
vn 0.000000 1.000000 0.000000
vn 0.000000 1.000000 0.000000
vn 0.000000 1.000000 0.000000
vn 0.000000 1.000000 0.000000
vn 0.000000 -1.000000 0.000000
vn 0.000000 -1.000000 0.000000
vn 0.000000 -1.000000 0.000000
vn 0.000000 -1.000000 0.000000
vn 0.000000 1.000000 0.000000
vn 0.000000 1.000000 0.000000
vn 0.000000 1.000000 0.000000
vn 0.000000 1.000000 0.000000
vn 0.000000 1.000000 0.000000
vn 0.000000 1.000000 0.000000
vn 0.000000 1.000000 0.000000
vn 0.000000 1.000000 0.000000
vn 0.000000 0.000000 1.000000
vn 0.000000 0.000000 1.000000
vn 0.000000 0.000000 1.000000
vn 0.000000 0.000000 1.000000
vn 0.000000 0.000000 -1.000000
vn 0.000000 0.000000 -1.000000
vn 0.000000 0.000000 -1.000000
vn 0.000000 0.000000 -1.000000
vn 0.000000 1.000000 0.000000
vn 0.000000 1.000000 0.000000
vn 0.000000 1.000000 0.000000
vn 0.000000 1.000000 0.000000
vn 0.000000 0.000000 1.000000
vn 0.000000 0.000000 1.000000
vn 0.000000 0.000000 1.000000
vn 0.000000 0.000000 1.000000
vn 0.000000 0.000000 -1.000000
vn 0.000000 0.000000 -1.000000
vn 0.000000 0.000000 -1.000000
vn 0.000000 0.000000 -1.000000
vn 0.000000 -1.000000 0.000000
vn 0.000000 -1.000000 0.000000
vn 0.000000 -1.000000 0.000000
vn 0.000000 -1.000000 0.000000
vn 0.000000 0.000000 1.000000
vn 0.000000 0.000000 1.000000
vn 0.000000 0.000000 1.000000
vn 0.000000 0.000000 1.000000
vn 0.000000 0.000000 1.000000
vn 0.000000 0.000000 1.000000
vn 0.000000 0.000000 1.000000
vn 0.000000 0.000000 1.000000
vn 0.000000 -1.000000 0.000000
vn 0.000000 -1.000000 0.000000
vn 0.000000 -1.000000 0.000000
vn 0.000000 -1.000000 0.000000
vn 0.000000 0.000000 -1.000000
vn 0.000000 0.000000 -1.000000
vn 0.000000 0.000000 -1.000000
vn 0.000000 0.000000 -1.000000
vn 0.000000 0.000000 1.000000
vn 0.000000 0.000000 1.000000
vn 0.000000 0.000000 1.000000
vn 0.000000 0.000000 1.000000
vn 0.000000 1.000000 0.000000
vn 0.000000 1.000000 0.000000
vn 0.000000 1.000000 0.000000
vn 0.000000 1.000000 0.000000
vn 0.000000 0.000000 -1.000000
vn 0.000000 0.000000 -1.000000
vn 0.000000 0.000000 -1.000000
vn 0.000000 0.000000 -1.000000
vn 0.707106 0.000000 0.707107
vn 0.707106 0.000000 0.707107
vn 0.000000 0.000000 0.000000
vn 0.707106 0.000000 0.707107
vn 0.707106 0.000000 0.707107
vn 0.000000 0.000000 1.000000
vn 0.000000 0.000000 1.000000
vn 0.000000 0.000000 1.000000
vn 0.000000 0.000000 1.000000
vn 0.000000 1.000000 0.000000
vn 0.000000 1.000000 0.000000
vn 0.000000 1.000000 0.000000
vn 0.000000 1.000000 0.000000
vn 0.000000 0.000000 -1.000000
vn 0.000000 0.000000 -1.000000
vn 0.000000 0.000000 -1.000000
vn 0.000000 0.000000 -1.000000
vn 0.000000 -1.000000 0.000000
vn 0.000000 -1.000000 0.000000
vn 0.000000 -1.000000 0.000000
vn 0.000000 -1.000000 0.000000
vn 1.000000 0.000000 0.000000
vn 1.000000 0.000000 0.000000
vn 1.000000 0.000000 0.000000
vn 1.000000 0.000000 0.000000
vn -1.000000 0.000000 0.000000
vn -1.000000 0.000000 0.000000
vn -1.000000 0.000000 0.000000
vn -1.000000 0.000000 0.000000
s off
g Environment1_Pared
usemtl lambert3SG
f 1/1/1 2/2/2 4/3/3 3/4/4
f 3/4/5 4/3/6 6/5/7 5/6/8
f 5/6/9 6/5/10 8/7/11 7/8/12
f 7/8/13 8/7/14 2/9/15 1/10/16
f 2/2/17 8/11/18 6/12/19 4/3/20
f 7/13/21 1/1/22 3/4/23 5/14/24
s 1
f 53/15/25 11/16/26 20/17/27 54/18/28
s 2
f 11/16/29 13/19/30 17/20/31 20/17/32
s 3
f 13/21/33 74/22/34 73/23/35 17/24/36
s 4
f 15/25/37 9/26/38 19/27/39 18/28/40
s 5
f 71/29/41 12/30/42 14/31/43 72/32/44
s 6
f 74/33/45 13/19/46 11/16/47 53/15/48
s 3
f 17/24/36 73/23/35 72/32/49 14/31/50
s 4
f 19/27/39 10/34/51 16/35/52 18/28/40
s 7
f 22/36/53 24/37/54 65/38/55 64/39/56
s 2
f 17/20/31 14/40/57 12/41/58 20/17/32
s 8
f 50/42/59 46/43/60 45/44/61 49/45/62
s 9
f 52/46/63 27/47/64 57/48/65 56/49/66
s 8
f 49/45/62 26/50/67 25/51/68 50/42/59
s 10
f 68/52/69 28/53/70 51/54/71 69/55/72
s 11
f 51/56/73 28/57/74 27/47/75 52/46/76
s 8
f 26/58/67 21/59/77 23/60/78 25/61/68
s 12
f 30/62/79 32/63/80 60/64/81 59/65/82
s 11
f 28/66/74 24/37/83 22/36/84 27/67/75
s 13
f 66/68/85 35/69/86 33/70/87 67/71/88
s 14
f 27/47/89 37/72/90 58/73/91 57/48/92
s 15
f 26/50/93 40/74/94 39/75/95 21/76/96
s 16
f 63/77/97 38/78/98 22/36/99 64/39/100
s 17
f 22/79/101 38/80/102 37/72/103 27/47/104
s 18
f 67/71/105 33/70/106 28/53/107 68/52/108
s off
f 28/66/109 33/81/110 35/82/111 24/37/112
s 19
f 24/37/113 35/82/114 66/83/115 65/38/116
s off
f 23/60/117 36/84/118 34/85/119 25/61/120
s 17
f 38/86/102 32/63/121 30/62/122 37/72/103
s 20
f 61/87/123 43/88/124 41/89/125 62/90/126
s 15
f 40/74/94 29/91/127 31/92/128 39/75/95
s 14
f 37/72/90 30/62/129 59/65/130 58/73/91
s 21
f 62/93/131 41/94/132 38/78/133 63/77/134
s off
f 38/95/135 41/96/136 43/88/137 32/63/138
s 22
f 32/63/139 43/88/140 61/87/141 60/64/142
s off
f 31/92/143 44/97/144 42/98/145 39/75/146
s 8
f 19/27/147 45/44/61 46/43/60 10/34/148
s 10
f 47/99/149 12/30/150 71/29/151 70/100/152
s off
f 12/41/153 47/101/154 48/102/155 20/17/156
s 9
f 20/17/157 48/102/158 55/103/159 54/18/160
s off
f 286/104/161 285/105/162 287/106/163 288/107/164
f 289/108/165 290/109/166 291/110/167 292/111/168
s 1
f 9/26/169 53/15/25 54/18/28 19/27/170
s 9
f 55/103/159 45/44/171 19/27/172 54/18/160
f 55/103/159 56/49/66 49/45/173 45/44/171
f 57/48/65 26/50/174 49/45/173 56/49/66
s 14
f 58/73/91 40/74/175 26/50/176 57/48/92
f 59/65/130 29/91/177 40/74/175 58/73/91
s 12
f 60/64/81 31/92/178 29/91/179 59/65/82
s 22
f 61/87/141 44/97/180 31/92/181 60/64/142
s 20
f 42/112/182 44/97/183 61/87/123 62/90/126
s 21
f 39/113/184 42/114/185 62/93/131 63/77/134
s 16
f 21/59/186 39/113/187 63/77/97 64/39/100
s 7
f 65/38/55 23/60/188 21/59/189 64/39/56
s 19
f 66/83/115 36/84/190 23/60/191 65/38/116
s 13
f 34/115/192 36/116/193 66/68/85 67/71/88
s 18
f 25/117/194 34/115/195 67/71/105 68/52/108
s 10
f 50/118/196 25/117/197 68/52/69 69/55/72
f 70/100/152 46/119/198 50/118/196 69/55/72
f 71/29/151 10/120/199 46/119/198 70/100/152
s 5
f 10/120/200 71/29/41 72/32/44 16/121/201
s 3
f 73/23/35 18/122/202 16/121/203 72/32/49
f 74/22/34 15/123/204 18/122/202 73/23/35
s 6
f 15/25/205 74/33/45 53/15/48 9/26/206
s 25
f 119/124/207 120/125/208 86/126/209 77/127/210
s 26
f 77/127/211 86/126/212 83/128/213 79/129/214
s 27
f 79/130/215 83/131/216 139/132/217 140/133/218
s 28
f 81/134/219 84/135/220 85/136/221 75/137/222
s 29
f 137/138/223 138/139/224 80/140/225 78/141/226
s 30
f 140/142/227 119/124/228 77/127/229 79/143/230
s 27
f 83/131/216 80/140/231 138/139/232 139/132/217
s 28
f 85/136/221 84/135/220 82/144/233 76/145/234
s 31
f 88/146/235 130/147/236 131/148/237 90/149/238
s 26
f 83/128/213 86/126/212 78/150/239 80/151/240
s off
f 278/152/241 277/153/242 279/154/243 280/155/244
s 32
f 118/156/245 122/157/246 123/158/247 93/159/248
s 33
f 115/160/249 116/161/250 91/162/251 92/163/252
s 34
f 134/164/253 135/165/254 117/166/255 94/167/256
s 35
f 117/168/257 118/156/258 93/159/259 94/169/260
s 33
f 92/163/252 91/162/251 89/170/261 87/171/262
s 36
f 96/172/263 125/173/264 126/174/265 98/175/266
s 35
f 94/176/260 93/177/259 88/178/267 90/179/268
s 37
f 132/180/269 133/181/270 99/182/271 101/183/272
s 38
f 93/159/273 123/158/274 124/184/275 103/185/276
s 39
f 92/163/277 87/171/278 105/186/279 106/187/280
s 40
f 129/188/281 130/147/282 88/146/283 104/189/284
s 41
f 88/190/285 93/159/286 103/185/287 104/191/288
s 42
f 133/181/289 134/164/290 94/167/291 99/182/292
s off
f 94/176/293 90/179/294 101/192/295 99/193/296
s 43
f 90/149/297 131/148/298 132/194/299 101/195/300
s off
f 89/196/301 91/197/302 100/198/303 102/199/304
s 41
f 104/191/288 103/185/287 96/172/305 98/175/306
s 44
f 127/200/307 128/201/308 107/202/309 109/203/310
s 39
f 106/187/280 105/204/279 97/205/311 95/206/312
s 38
f 103/185/276 124/184/275 125/173/313 96/172/314
s 45
f 128/207/315 129/188/316 104/189/317 107/208/318
s off
f 104/191/319 98/175/320 109/203/321 107/202/322
s 46
f 98/175/323 126/174/324 127/200/325 109/203/326
s off
f 97/205/327 105/209/328 108/210/329 110/211/330
s 33
f 85/136/331 76/145/332 112/212/333 111/213/334
s 34
f 113/214/335 136/215/336 137/138/337 78/141/338
s off
f 78/150/339 86/126/340 114/216/341 113/217/342
s 32
f 86/126/343 120/125/344 121/218/345 114/216/346
s 33
f 116/161/250 115/160/249 111/213/334 112/212/333
s off
f 282/219/347 281/220/348 283/221/349 284/222/350
s 25
f 75/137/351 85/136/352 120/125/208 119/124/207
s 32
f 121/218/345 120/125/344 85/136/353 111/213/354
f 121/218/345 111/213/354 115/160/355 122/157/246
f 123/158/247 122/157/246 115/160/355 92/163/356
s 38
f 124/184/275 123/158/274 92/163/357 106/187/358
f 125/173/313 124/184/275 106/187/358 95/206/359
s 36
f 126/174/265 125/173/264 95/206/360 97/205/361
s 46
f 127/200/325 126/174/324 97/205/362 110/211/363
s 44
f 108/210/364 128/201/308 127/200/307 110/211/365
s 45
f 105/223/366 129/188/316 128/207/315 108/224/367
s 40
f 87/225/368 130/147/282 129/188/281 105/223/369
s 31
f 131/148/237 130/147/236 87/225/370 89/196/371
s 43
f 132/194/299 131/148/298 89/196/372 102/199/373
s 37
f 100/226/374 133/181/270 132/180/269 102/227/375
s 42
f 91/228/376 134/164/290 133/181/289 100/226/377
s 34
f 116/229/378 135/165/254 134/164/253 91/228/379
f 136/215/336 135/165/254 116/229/378 112/230/380
f 137/138/337 136/215/336 112/230/380 76/231/381
s 29
f 76/231/382 82/232/383 138/139/224 137/138/223
s 27
f 139/132/217 138/139/232 82/232/384 84/233/385
f 140/133/218 139/132/217 84/233/385 81/234/386
s 30
f 81/235/387 75/137/388 119/124/228 140/142/227
s 49
f 164/236/389 165/237/390 141/238/391 142/239/392
s off
f 163/240/393 164/236/394 142/239/395 145/241/396
s 50
f 179/242/397 180/243/398 157/244/399 149/245/400
s 51
f 156/246/401 144/247/402 163/248/403 170/249/404
s off
f 149/245/405 157/244/406 152/250/407
f 152/250/408 157/244/409 153/251/410
s 52
f 153/251/411 157/244/412 158/252/413 154/253/414
s off
f 192/254/415 191/255/416 193/256/417 194/257/418
s 52
f 158/252/413 157/244/412 171/258/419 172/259/420
s off
f 175/260/421 176/261/422 177/262/423 178/263/424
s 53
f 173/264/425 174/265/426 161/266/427 159/267/428 178/263/429 177/262/430
s off
f 167/268/431 166/269/432 168/270/433 169/271/434
s 49
f 143/272/435 165/273/390 164/274/389 168/270/436 166/269/437
s off
f 164/236/438 163/240/439 169/271/440 168/270/441
f 163/240/442 144/275/443 167/268/444 169/271/445
s 50
f 171/258/446 181/276/447 182/277/448 150/278/449
s 52
f 172/259/420 171/258/419 150/278/450 155/279/451
f 173/280/452 172/281/420 155/282/451 160/283/453
s 53
f 174/284/426 173/280/425 160/283/454 162/285/455
s off
f 158/286/456 172/281/457 176/261/458 175/260/459
f 172/281/460 173/280/461 177/262/462 176/261/463
s 50
f 181/287/447 180/288/398 179/289/397 183/290/464 200/291/465 184/292/466 182/293/448
s off
f 202/294/467 201/295/468 203/296/469 204/297/470
s 50
f 147/298/471 156/246/472 186/299/473 185/300/474
s off
f 196/301/475 195/302/476 197/303/477 198/304/478
s 50
f 188/305/479 187/306/480 170/249/481 148/307/482
f 189/308/483 185/309/474 186/310/473 187/311/480 188/312/479 190/313/484 199/314/485
s off
f 157/244/486 180/243/487 191/255/488 192/254/489
f 180/243/490 181/276/491 193/256/492 191/255/493
f 181/276/494 171/258/495 194/257/496 193/256/497
f 171/258/498 157/244/499 192/254/500 194/257/501
f 187/306/502 186/299/503 195/302/504 196/301/505
f 186/299/506 156/246/507 197/303/508 195/302/509
f 156/246/510 170/249/511 198/304/512 197/303/513
f 170/249/514 187/306/515 196/301/516 198/304/517
s 50
f 184/292/466 200/291/465 199/314/485 190/313/484
s off
f 200/291/518 183/290/519 201/295/520 202/294/521
f 189/308/522 199/314/523 204/297/524 203/296/525
f 199/314/526 200/291/527 202/294/528 204/297/529
s 55
f 205/315/530 206/316/531 208/317/532 207/318/533
f 207/318/533 208/317/532 210/319/534 209/320/535
s 56
f 209/321/536 210/319/537 212/322/538 211/323/539
f 211/323/539 212/322/538 214/324/540 213/325/541
f 213/325/541 214/324/540 216/326/542 215/327/543
s 57
f 215/328/544 216/326/545 218/329/546 217/330/547
f 217/330/547 218/329/546 220/331/548 219/332/549
s 58
f 219/332/550 220/331/551 222/333/552 221/334/553
f 221/334/553 222/333/552 224/335/554 223/336/555
f 223/336/555 224/335/554 206/316/556 205/315/557
s 59
f 222/333/558 220/331/559 218/329/560 225/337/561
f 224/335/562 222/333/558 225/337/561 226/338/563
f 206/316/564 224/335/562 226/338/563 208/317/565
f 225/337/561 218/329/560 216/326/566 214/324/567
f 226/338/563 225/337/561 214/324/567 212/322/568
f 208/317/565 226/338/563 212/322/568 210/319/569
s 60
f 229/339/570 230/340/571 231/341/572 232/342/573
s off
f 221/343/574 223/344/575 228/345/576 227/346/577
s 60
f 233/347/578 234/348/579 235/349/580 236/350/581
f 232/342/573 231/341/572 237/351/582 238/352/583
f 231/341/572 236/350/581 239/353/584 237/351/582
f 236/350/581 235/349/580 240/354/585 239/353/584
s off
f 219/332/586 221/334/587 230/355/588 229/356/589
f 221/343/590 227/346/591 231/341/592 230/340/593
f 217/330/594 219/332/595 229/356/596 232/357/597
f 223/336/598 205/315/599 234/358/600 233/359/601
f 205/315/602 207/318/603 235/360/604 234/358/605
f 228/345/606 223/344/607 233/347/608 236/350/609
f 213/325/610 215/327/611 238/361/612 237/362/613
f 215/328/614 217/330/615 232/357/616 238/363/617
f 227/346/618 228/345/619 236/350/620 231/341/621
f 211/323/622 213/325/623 237/362/624 239/364/625
f 207/318/626 209/320/627 240/365/628 235/360/629
f 209/321/630 211/323/631 239/364/632 240/366/633
s 62
f 241/367/634 242/368/635 244/369/636 243/370/637
f 243/370/637 244/369/636 246/371/638 245/372/639
s 63
f 245/372/640 246/373/641 248/374/642 247/375/643
f 247/375/643 248/374/642 250/376/644 249/377/645
f 249/377/645 250/376/644 252/378/646 251/379/647
s 64
f 251/379/648 252/380/649 254/381/650 253/382/651
f 253/382/651 254/381/650 256/383/652 255/384/653
s 65
f 255/384/654 256/383/655 258/385/656 257/386/657
f 257/386/657 258/385/656 260/387/658 259/388/659
f 259/388/659 260/387/658 242/368/660 241/367/661
s 66
f 266/389/662 265/390/663 267/391/664 268/392/665
s off
f 260/393/666 258/394/667 261/395/668 262/396/669
s 66
f 270/397/670 269/398/671 271/399/672 272/400/673
f 268/392/665 267/391/664 273/401/674 274/402/675
f 271/399/672 268/392/665 274/402/675 275/403/676
f 272/400/673 271/399/672 275/403/676 276/404/677
s 68
f 255/384/678 257/386/679 263/405/680 253/382/681
f 257/386/679 259/388/682 264/406/683 263/405/680
f 259/388/682 241/367/684 243/370/685 264/406/683
f 253/382/681 263/405/680 249/377/686 251/379/687
f 263/405/680 264/406/683 247/375/688 249/377/686
f 264/406/683 243/370/685 245/372/689 247/375/688
s off
f 258/385/690 256/383/691 265/407/692 266/408/693
f 256/383/694 254/381/695 267/409/696 265/407/697
f 261/395/698 258/394/699 266/389/700 268/392/701
f 242/368/702 260/387/703 269/410/704 270/411/705
f 260/393/706 262/396/707 271/399/708 269/398/709
f 244/369/710 242/368/711 270/411/712 272/412/713
f 254/381/714 252/380/715 273/413/716 267/409/717
f 252/378/718 250/376/719 274/414/720 273/415/721
f 262/396/722 261/395/723 268/392/724 271/399/725
f 250/376/726 248/374/727 275/416/728 274/414/729
f 248/374/730 246/373/731 276/417/732 275/416/733
f 246/371/734 244/369/735 272/412/736 276/418/737
f 114/216/738 121/218/739 279/419/740 277/420/741
f 121/218/742 122/157/743 280/155/744 279/154/745
f 122/157/746 118/156/747 278/421/748 280/422/749
f 117/166/750 135/165/751 281/220/752 282/219/753
f 135/165/754 136/215/755 283/221/756 281/220/757
f 136/215/758 113/214/759 284/222/760 283/221/761
f 47/99/762 70/100/763 287/106/764 285/105/765
f 70/100/766 69/55/767 288/107/768 287/106/769
f 69/55/770 51/54/771 286/104/772 288/107/773
f 52/46/774 56/49/775 291/423/776 290/424/777
f 56/49/778 55/103/779 292/111/780 291/110/781
f 55/103/782 48/102/783 289/425/784 292/426/785
s 51
f 170/249/404 163/248/403 145/427/786 146/428/787 148/307/788
f 147/298/789 151/429/790 144/247/402 156/246/401
s off
f 293/430/791 294/431/792 296/432/793 295/433/794
f 295/433/795 296/432/796 298/434/797 297/435/798
f 297/435/799 298/434/800 300/436/801 299/437/802
f 299/437/803 300/436/804 294/438/805 293/439/806
f 294/431/807 300/440/808 298/441/809 296/432/810
f 299/442/811 293/430/812 295/433/813 297/443/814
