# This file uses centimeters as units for non-parametric coordinates.

mtllib pipe3.mtl
g kk:default1
v -0.106579 0.147665 -0.222517
v -0.258999 0.147665 -0.195642
v -0.258999 4.381324 -0.195642
v -0.106579 4.381324 -0.222517
v -0.393036 0.147665 -0.118254
v -0.393036 4.381324 -0.118254
v -0.492519 0.147665 0.000307
v -0.492519 4.381324 0.000307
v -0.545456 0.147665 0.145743
v -0.545456 4.381324 0.145743
v -0.545456 0.147665 0.300517
v -0.545456 4.381324 0.300517
v -0.492519 0.147665 0.445955
v -0.492519 4.381324 0.445955
v -0.393036 0.147665 0.564515
v -0.393036 4.381324 0.564515
v -0.258999 0.147665 0.641901
v -0.258999 4.381324 0.641901
v -0.106579 0.147665 0.668779
v -0.106579 4.381324 0.668779
v 0.045845 0.147665 0.641901
v 0.045845 4.381324 0.641901
v 0.179878 0.147665 0.564515
v 0.179878 4.381324 0.564515
v 0.279362 0.147665 0.445955
v 0.279362 4.381324 0.445955
v 0.332298 0.147665 0.300517
v 0.332298 4.381324 0.300517
v 0.332298 0.147665 0.145743
v 0.332298 4.381324 0.145743
v 0.279369 0.147665 0.000307
v 0.279369 4.381324 0.000307
v 0.179878 0.147665 -0.118254
v 0.179878 4.381324 -0.118254
v 0.045845 0.147665 -0.195642
v 0.045845 4.381324 -0.195642
v -0.258999 4.645799 -0.172529
v -0.106579 4.651386 -0.198819
v -0.393036 4.629706 -0.096831
v -0.492519 4.605059 0.019140
v -0.545456 4.574822 0.161400
v -0.545456 4.542641 0.312786
v -0.492519 4.512405 0.455047
v -0.393036 4.487751 0.571017
v -0.258999 4.471663 0.646716
v -0.106579 4.466074 0.673002
v 0.045845 4.471663 0.646716
v 0.179878 4.487751 0.571017
v 0.279362 4.512405 0.455047
v 0.332298 4.542641 0.312786
v 0.332298 4.574822 0.161400
v 0.279369 4.605059 0.019140
v 0.179878 4.629706 -0.096831
v 0.045845 4.645799 -0.172529
v -0.258999 4.899685 -0.094932
v -0.106579 4.910617 -0.119490
v -0.393036 4.868209 -0.024240
v -0.492519 4.819986 0.084074
v -0.545456 4.760830 0.216940
v -0.545456 4.697877 0.358332
v -0.492519 4.638728 0.491193
v -0.393036 4.590503 0.599507
v -0.258999 4.559027 0.670201
v -0.106579 4.548097 0.694757
v 0.045845 4.559027 0.670201
v 0.179878 4.590503 0.599507
v 0.279362 4.638728 0.491193
v 0.332298 4.697877 0.358332
v 0.332298 4.760830 0.216940
v 0.279369 4.819986 0.084074
v 0.179878 4.868209 -0.024240
v 0.045845 4.899685 -0.094932
v -0.258999 5.131895 0.033751
v -0.106579 5.147689 0.012009
v -0.393036 5.086407 0.096361
v -0.492519 5.016718 0.192279
v -0.545456 4.931232 0.309939
v -0.545456 4.840259 0.435151
v -0.492519 4.754771 0.552817
v -0.393036 4.685084 0.648733
v -0.258999 4.639596 0.711337
v -0.106579 4.623797 0.733084
v 0.045845 4.639596 0.711337
v 0.179878 4.685084 0.648733
v 0.279362 4.754771 0.552817
v 0.332298 4.840259 0.435151
v 0.332298 4.931232 0.309939
v 0.279369 5.016718 0.192279
v 0.179878 5.086407 0.096361
v 0.045845 5.131895 0.033751
v -0.258999 5.332272 0.207906
v -0.106579 5.352242 0.189921
v -0.393036 5.274762 0.259687
v -0.492519 5.186651 0.339021
v -0.545456 5.078568 0.436339
v -0.545456 4.963552 0.539901
v -0.492519 4.855468 0.637217
v -0.393036 4.767365 0.716551
v -0.258999 4.709853 0.768332
v -0.106579 4.689878 0.786314
v 0.045845 4.709853 0.768332
v 0.179878 4.767365 0.716551
v 0.279362 4.855468 0.637217
v 0.332298 4.963552 0.539901
v 0.332298 5.078568 0.436339
v 0.279369 5.186651 0.339021
v 0.179878 5.274762 0.259687
v 0.045845 5.332272 0.207906
v -0.258999 5.492059 0.419910
v -0.106579 5.515336 0.406474
v -0.393036 5.425042 0.458607
v -0.492519 5.322365 0.517887
v -0.545456 5.196413 0.590602
v -0.545456 5.062374 0.667989
v -0.492519 4.936420 0.740711
v -0.393036 4.833743 0.799992
v -0.258999 4.766727 0.838686
v -0.106579 4.743451 0.852122
v 0.045845 4.766727 0.838686
v 0.179878 4.833743 0.799992
v 0.279362 4.936420 0.740711
v 0.332298 5.062374 0.667989
v 0.332298 5.196413 0.590602
v 0.279369 5.322365 0.517887
v 0.179878 5.425042 0.458607
v 0.045845 5.492059 0.419910
v -0.258999 5.604279 0.660511
v -0.106579 5.629841 0.652206
v -0.393036 5.530681 0.684421
v -0.492519 5.417922 0.721061
v -0.545456 5.279599 0.766003
v -0.545456 5.132408 0.813833
v -0.492519 4.994082 0.858773
v -0.393036 4.881324 0.895409
v -0.258999 4.807726 0.919322
v -0.106579 4.782168 0.927629
v 0.045845 4.807726 0.919322
v 0.179878 4.881324 0.895409
v 0.279362 4.994082 0.858773
v 0.332298 5.132408 0.813833
v 0.332298 5.279599 0.766003
v 0.279369 5.417922 0.721061
v 0.179878 5.530681 0.684421
v 0.045845 5.604279 0.660511
v -0.106579 5.680734 0.849221
v -0.258999 5.664021 0.919180
v -0.106579 5.690753 0.916372
v -0.393036 5.587062 0.927268
v -0.492519 5.469148 0.939662
v -0.545456 5.324509 0.954867
v -0.545456 5.170588 0.971044
v -0.492519 5.025941 0.986245
v -0.393036 4.908027 0.998639
v -0.258999 4.831069 1.006727
v -0.106579 4.804339 1.009539
v 0.045845 4.831069 1.006727
v 0.179878 4.908027 0.998639
v 0.279362 5.025941 0.986245
v 0.332298 5.170588 0.971044
v 0.332298 5.324509 0.954867
v 0.279369 5.469148 0.939662
v 0.179878 5.587062 0.927268
v 0.045845 5.664021 0.919180
v -0.106579 5.697241 0.983950
v 0.045845 5.670403 0.985357
v -0.258999 5.673310 1.051778
v -0.106579 5.700182 1.051778
v -0.393036 5.595922 1.051778
v -0.492519 5.477362 1.051778
v -0.545456 5.331919 1.051778
v -0.545456 5.177149 1.051778
v -0.492519 5.031713 1.051778
v -0.393036 4.913148 1.051778
v -0.258999 4.835767 1.051778
v -0.106579 4.808890 1.051778
v 0.045845 4.835762 1.051778
v 0.179878 4.913148 1.051778
v 0.279362 5.031713 1.051778
v 0.332298 5.177149 1.051778
v 0.332298 5.331919 1.051778
v 0.279369 5.477362 1.051778
v 0.179878 5.595922 1.051778
v 0.045845 5.673310 1.051778
v -0.335678 5.883994 1.114427
v -0.106579 5.924388 1.114427
v -0.537148 5.767676 1.114427
v -0.686687 5.589464 1.114427
v -0.766254 5.370852 1.114427
v -0.766254 5.138220 1.114427
v -0.686687 4.919610 1.114427
v -0.537148 4.741396 1.114427
v -0.335678 4.625078 1.114427
v -0.106579 4.584684 1.114427
v 0.122528 4.625078 1.114427
v 0.323997 4.741396 1.114427
v 0.473530 4.919610 1.114427
v 0.553097 5.138220 1.114427
v 0.553097 5.370852 1.114427
v 0.473530 5.589464 1.114427
v 0.323997 5.767676 1.114427
v 0.122528 5.883994 1.114427
v -0.335678 5.883994 1.319168
v -0.106579 5.924388 1.319168
v -0.537148 5.767676 1.319168
v -0.686687 5.589464 1.319168
v -0.766254 5.370852 1.319168
v -0.766254 5.138220 1.319168
v -0.686687 4.919610 1.319168
v -0.537148 4.741396 1.319168
v -0.335678 4.625078 1.319168
v -0.106579 4.584684 1.319168
v 0.122528 4.625078 1.319168
v 0.323997 4.741396 1.319168
v 0.473530 4.919610 1.319168
v 0.553097 5.138220 1.319168
v 0.553097 5.370852 1.319168
v 0.473530 5.589464 1.319168
v 0.323997 5.767676 1.319168
v 0.122528 5.883994 1.319168
v -0.106579 0.103102 -0.446725
v -0.335678 0.103102 -0.406326
v -0.537148 0.103102 -0.290007
v -0.686687 0.103102 -0.111796
v -0.766254 0.103102 0.106811
v -0.766254 0.103102 0.339449
v -0.686687 0.103102 0.558058
v -0.537148 0.103102 0.736267
v -0.335678 0.103102 0.852587
v -0.106579 0.103102 0.892985
v 0.122528 0.103102 0.852587
v 0.323997 0.103102 0.736267
v 0.473530 0.103102 0.558058
v 0.553097 0.103102 0.339449
v 0.553097 0.103102 0.106811
v 0.473530 0.103102 -0.111796
v 0.323997 0.103102 -0.290007
v 0.122528 0.103102 -0.406326
v -0.106579 -0.075159 -0.446725
v -0.335678 -0.075159 -0.406326
v -0.537148 -0.075159 -0.290007
v -0.686687 -0.075159 -0.111796
v -0.766254 -0.075159 0.106811
v -0.766254 -0.075159 0.339449
v -0.686687 -0.075159 0.558058
v -0.537148 -0.075159 0.736267
v -0.335678 -0.075159 0.852587
v -0.106579 -0.075159 0.892985
v 0.122528 -0.075159 0.852587
v 0.323997 -0.075159 0.736267
v 0.473530 -0.075159 0.558058
v 0.553097 -0.075159 0.339449
v 0.553097 -0.075159 0.106811
v 0.473530 -0.075159 -0.111796
v 0.323997 -0.075159 -0.290007
v 0.122528 -0.075159 -0.406326
vt 0.766491 0.500000
vt 0.743726 0.588830
vt 0.538482 0.515159
vt 0.545478 0.500000
vt 0.716043 0.677662
vt 0.531267 0.530319
vt 0.681655 0.766490
vt 0.523823 0.545478
vt 0.560552 0.785542
vt 0.507941 0.552266
vt 0.439448 0.785542
vt 0.492059 0.552266
vt 0.318345 0.766490
vt 0.476177 0.545478
vt 0.283957 0.677662
vt 0.468733 0.530319
vt 0.256274 0.588830
vt 0.461518 0.515159
vt 0.233510 0.500000
vt 0.454522 0.500000
vt 0.256275 0.411170
vt 0.461518 0.484841
vt 0.283958 0.322338
vt 0.468733 0.469681
vt 0.318346 0.233510
vt 0.476178 0.454522
vt 0.439449 0.214458
vt 0.492059 0.447734
vt 0.560555 0.214458
vt 0.507941 0.447734
vt 0.681657 0.233508
vt 0.523823 0.454522
vt 0.716043 0.322338
vt 0.531267 0.469681
vt 0.743726 0.411169
vt 0.538482 0.484841
vt 0.530606 0.514521
vt 0.537171 0.500000
vt 0.524374 0.529042
vt 0.518373 0.543562
vt 0.504569 0.550378
vt 0.490777 0.547426
vt 0.476803 0.542303
vt 0.469393 0.528714
vt 0.462198 0.514633
vt 0.455266 0.500000
vt 0.462199 0.485367
vt 0.469393 0.471286
vt 0.476803 0.457697
vt 0.490778 0.452574
vt 0.504570 0.449622
vt 0.518373 0.456438
vt 0.524374 0.470958
vt 0.530606 0.485479
vt 0.523306 0.513934
vt 0.529471 0.500000
vt 0.517974 0.527867
vt 0.513295 0.541801
vt 0.501409 0.546024
vt 0.489568 0.542806
vt 0.477396 0.539257
vt 0.470025 0.527167
vt 0.462855 0.514125
vt 0.455985 0.500000
vt 0.462855 0.485875
vt 0.470025 0.472833
vt 0.477397 0.460743
vt 0.489569 0.457194
vt 0.501409 0.453976
vt 0.513295 0.458199
vt 0.517974 0.472133
vt 0.523306 0.486066
vt 0.516522 0.513392
vt 0.522314 0.500000
vt 0.512015 0.526785
vt 0.508551 0.540177
vt 0.498441 0.540082
vt 0.488426 0.538392
vt 0.477960 0.536332
vt 0.470631 0.525676
vt 0.463489 0.513633
vt 0.456682 0.500000
vt 0.463489 0.486367
vt 0.470631 0.474324
vt 0.477961 0.463668
vt 0.488427 0.461608
vt 0.498441 0.459918
vt 0.508551 0.459823
vt 0.512015 0.473215
vt 0.516522 0.486608
vt 0.510200 0.512891
vt 0.515644 0.500000
vt 0.506454 0.525783
vt 0.504109 0.535019
vt 0.495648 0.534425
vt 0.487345 0.534169
vt 0.478497 0.533521
vt 0.471214 0.524236
vt 0.464102 0.513156
vt 0.457357 0.500000
vt 0.464102 0.486844
vt 0.471214 0.475764
vt 0.478497 0.466479
vt 0.487345 0.465831
vt 0.495648 0.465575
vt 0.504109 0.461326
vt 0.506454 0.474217
vt 0.510200 0.487109
vt 0.504295 0.512263
vt 0.509413 0.499833
vt 0.501251 0.524694
vt 0.499942 0.528419
vt 0.493014 0.529343
vt 0.486321 0.530126
vt 0.479008 0.530819
vt 0.471773 0.522846
vt 0.464695 0.512695
vt 0.458012 0.500000
vt 0.464695 0.487305
vt 0.471774 0.477154
vt 0.479008 0.469181
vt 0.486321 0.469874
vt 0.493015 0.470657
vt 0.499942 0.462540
vt 0.501251 0.474971
vt 0.504295 0.487402
vt 0.498767 0.508395
vt 0.503580 0.496312
vt 0.496373 0.520478
vt 0.496024 0.523297
vt 0.490527 0.525582
vt 0.485349 0.527478
vt 0.479495 0.528217
vt 0.472312 0.521502
vt 0.465268 0.512249
vt 0.458646 0.500000
vt 0.465268 0.487751
vt 0.472312 0.478498
vt 0.479495 0.471783
vt 0.485349 0.472522
vt 0.490527 0.473223
vt 0.496024 0.460064
vt 0.496373 0.472147
vt 0.498767 0.484230
vt 0.493581 0.504631
vt 0.497379 0.492875
vt 0.502598 0.496266
vt 0.492524 0.516387
vt 0.492334 0.518514
vt 0.488175 0.521972
vt 0.484425 0.525051
vt 0.479124 0.525712
vt 0.472830 0.520203
vt 0.465823 0.511816
vt 0.459262 0.500000
vt 0.465823 0.488184
vt 0.472830 0.479797
vt 0.479124 0.474288
vt 0.483611 0.474949
vt 0.487382 0.475577
vt 0.491562 0.457607
vt 0.491770 0.469363
vt 0.492846 0.481119
vt 0.497406 0.492948
vt 0.491103 0.502822
vt 0.494295 0.491223
vt 0.490796 0.514421
vt 0.490567 0.516197
vt 0.487044 0.520217
vt 0.483979 0.523868
vt 0.478806 0.524492
vt 0.473082 0.519569
vt 0.466094 0.511604
vt 0.459564 0.500000
vt 0.466095 0.488396
vt 0.473082 0.480431
vt 0.478806 0.475508
vt 0.482637 0.476132
vt 0.485736 0.476726
vt 0.489291 0.456426
vt 0.489553 0.468025
vt 0.492919 0.481308
vt 0.489888 0.479624
vt 0.491410 0.502727
vt 0.494490 0.491519
vt 0.489965 0.513935
vt 0.490908 0.515630
vt 0.487521 0.516397
vt 0.484580 0.519969
vt 0.480942 0.523565
vt 0.474130 0.518817
vt 0.467423 0.511153
vt 0.461139 0.500000
vt 0.467424 0.488847
vt 0.474130 0.481183
vt 0.479618 0.476435
vt 0.483290 0.477014
vt 0.486263 0.474703
vt 0.489679 0.457895
vt 0.489922 0.469103
vt 0.490237 0.480311
vt 0.491663 0.502648
vt 0.494650 0.491763
vt 0.490267 0.513534
vt 0.491188 0.515171
vt 0.487912 0.515899
vt 0.485073 0.519344
vt 0.481562 0.522805
vt 0.474986 0.518201
vt 0.468509 0.510785
vt 0.462427 0.500000
vt 0.468509 0.489215
vt 0.474986 0.481799
vt 0.480283 0.477194
vt 0.483825 0.477737
vt 0.486694 0.475476
vt 0.489998 0.459108
vt 0.490226 0.469993
vt 0.490525 0.480878
vt 0.897689 0.500000
vt 0.882701 0.632758
vt 0.861500 0.765516
vt 0.830943 0.897689
vt 0.610314 0.906036
vt 0.389686 0.906036
vt 0.169057 0.897689
vt 0.138500 0.765516
vt 0.117299 0.632758
vt 0.102311 0.500000
vt 0.117299 0.367242
vt 0.138500 0.234484
vt 0.169057 0.102311
vt 0.389686 0.093964
vt 0.610314 0.093964
vt 0.830943 0.102311
vt 0.861500 0.234484
vt 0.882701 0.367242
vt 1.000000 0.500000
vt 1.000000 0.666667
vt 1.000000 0.833333
vt 1.000000 1.000000
vt 0.666667 1.000000
vt 0.333333 1.000000
vt 0.000000 1.000000
vt 0.000000 0.833333
vt 0.000000 0.666667
vt 0.000000 0.500000
vt 0.000000 0.333333
vt 0.000000 0.166667
vt 0.000000 0.000000
vt 0.333333 0.000000
vt 0.666667 0.000000
vt 1.000000 0.000000
vt 1.000000 0.166667
vt 1.000000 0.333333
vn -0.173653 0.000000 -0.984807
vn -0.173653 0.000000 -0.984807
vn -0.173653 0.000000 -0.984807
vn -0.173653 0.000000 -0.984807
vn -0.342000 0.000000 -0.939700
vn -0.642817 0.000000 -0.766020
vn -0.642490 0.002800 -0.766289
vn -0.341788 0.004000 -0.939768
vn -0.642817 0.000000 -0.766020
vn -0.866019 0.000000 -0.500011
vn -0.865863 0.001300 -0.500279
vn -0.642490 0.002800 -0.766289
vn -0.866019 0.000000 -0.500011
vn -0.984816 0.000000 -0.173603
vn -0.984781 0.000200 -0.173797
vn -0.865863 0.001300 -0.500279
vn -0.984816 0.000000 -0.173603
vn -0.984816 0.000000 0.173603
vn -0.984764 0.000300 0.173894
vn -0.984781 0.000200 -0.173797
vn -0.984816 0.000000 0.173603
vn -0.866019 0.000000 0.500011
vn -0.865681 0.002500 0.500589
vn -0.984764 0.000300 0.173894
vn -0.866019 0.000000 0.500011
vn -0.642817 0.000000 0.766020
vn -0.642095 0.006900 0.766594
vn -0.865681 0.002500 0.500589
vn -0.642817 0.000000 0.766020
vn -0.342000 0.000000 0.939700
vn -0.341413 0.012000 0.939837
vn -0.642095 0.006900 0.766594
vn -0.342000 0.000000 0.939700
vn 0.000000 0.000000 1.000000
vn -0.000100 0.014300 0.999898
vn -0.341413 0.012000 0.939837
vn 0.000000 0.000000 1.000000
vn 0.342000 0.000000 0.939700
vn 0.341294 0.011700 0.939884
vn -0.000100 0.014300 0.999898
vn 0.342000 0.000000 0.939700
vn 0.642817 0.000000 0.766020
vn 0.642097 0.006500 0.766596
vn 0.341294 0.011700 0.939884
vn 0.642817 0.000000 0.766020
vn 0.866019 0.000000 0.500011
vn 0.865725 0.002200 0.500515
vn 0.642097 0.006500 0.766596
vn 0.866019 0.000000 0.500011
vn 0.984816 0.000000 0.173603
vn 0.984781 0.000200 0.173797
vn 0.865725 0.002200 0.500515
vn 0.984816 0.000000 0.173603
vn 0.984816 0.000000 -0.173603
vn 0.984781 0.000300 -0.173797
vn 0.984781 0.000200 0.173797
vn 0.984816 0.000000 -0.173603
vn 0.866019 0.000000 -0.500011
vn 0.865838 0.001400 -0.500322
vn 0.984781 0.000300 -0.173797
vn 0.866019 0.000000 -0.500011
vn 0.642817 0.000000 -0.766020
vn 0.642490 0.002900 -0.766288
vn 0.865838 0.001400 -0.500322
vn 0.642817 0.000000 -0.766020
vn 0.342000 0.000000 -0.939700
vn 0.341788 0.004100 -0.939768
vn 0.642490 0.002900 -0.766288
vn 0.342000 0.000000 -0.939700
vn 0.000000 0.000000 -1.000000
vn 0.000000 0.004500 -0.999990
vn 0.341788 0.004100 -0.939768
vn 0.000000 0.004500 -0.999990
vn -0.341010 0.130704 -0.930929
vn -0.341002 0.179301 -0.922805
vn 0.000100 0.191094 -0.981572
vn -0.341788 0.004000 -0.939768
vn -0.641281 0.105797 -0.759977
vn -0.641285 0.145497 -0.753382
vn -0.341002 0.179301 -0.922805
vn -0.642490 0.002800 -0.766289
vn -0.865863 0.001300 -0.500279
vn -0.864733 0.094204 -0.493319
vn -0.641285 0.145497 -0.753382
vn -0.865863 0.001300 -0.500279
vn -0.984781 0.000200 -0.173797
vn -0.984315 0.032500 -0.173403
vn -0.864733 0.094204 -0.493319
vn -0.984781 0.000200 -0.173797
vn -0.985271 -0.021899 0.169595
vn -0.985275 -0.030699 0.168196
vn -0.984315 0.032500 -0.173403
vn -0.984764 0.000300 0.173894
vn -0.867125 -0.060402 0.494414
vn -0.867108 -0.086201 0.490605
vn -0.985275 -0.030699 0.168196
vn -0.865681 0.002500 0.500589
vn -0.643896 -0.086600 0.760196
vn -0.643915 -0.126203 0.754617
vn -0.867108 -0.086201 0.490605
vn -0.642095 0.006900 0.766594
vn -0.342704 -0.099001 0.934212
vn -0.342720 -0.147708 0.927753
vn -0.643915 -0.126203 0.754617
vn -0.341413 0.012000 0.939837
vn -0.000200 -0.049798 0.998759
vn -0.000200 -0.153898 0.988087
vn -0.342720 -0.147708 0.927753
vn -0.000100 0.014300 0.999898
vn 0.342408 -0.099002 0.934321
vn 0.342386 -0.147794 0.927862
vn -0.000200 -0.153898 0.988087
vn 0.341294 0.011700 0.939884
vn 0.643896 -0.086600 0.760196
vn 0.643866 -0.126193 0.754660
vn 0.342386 -0.147794 0.927862
vn 0.642097 0.006500 0.766596
vn 0.867193 -0.060400 0.494296
vn 0.867176 -0.086198 0.490486
vn 0.643866 -0.126193 0.754660
vn 0.865725 0.002200 0.500515
vn 0.985304 -0.021900 0.169401
vn 0.985309 -0.030700 0.168001
vn 0.867176 -0.086198 0.490486
vn 0.984781 0.000200 0.173797
vn 0.984291 0.023400 -0.174998
vn 0.984294 0.032600 -0.173499
vn 0.985309 -0.030700 0.168001
vn 0.984781 0.000300 -0.173797
vn 0.864710 0.068301 -0.497606
vn 0.864690 0.094199 -0.493394
vn 0.984294 0.032600 -0.173499
vn 0.865838 0.001400 -0.500322
vn 0.641330 0.105805 -0.759935
vn 0.641285 0.145497 -0.753382
vn 0.864690 0.094199 -0.493394
vn 0.642490 0.002900 -0.766288
vn 0.341099 0.130700 -0.930897
vn 0.341090 0.179295 -0.922773
vn 0.641285 0.145497 -0.753382
vn 0.341788 0.004100 -0.939768
vn 0.000100 0.139405 -0.990235
vn 0.000100 0.191094 -0.981572
vn 0.341090 0.179295 -0.922773
vn 0.000100 0.191094 -0.981572
vn -0.341002 0.179301 -0.922805
vn -0.340994 0.367194 -0.865385
vn 0.000100 0.390997 -0.920392
vn -0.341002 0.179301 -0.922805
vn -0.641285 0.145497 -0.753382
vn -0.641290 0.298895 -0.706689
vn -0.340994 0.367194 -0.865385
vn -0.641285 0.145497 -0.753382
vn -0.864733 0.094204 -0.493319
vn -0.864747 0.194711 -0.462925
vn -0.641290 0.298895 -0.706689
vn -0.864733 0.094204 -0.493319
vn -0.984307 0.059300 -0.166201
vn -0.984319 0.067901 -0.162803
vn -0.864747 0.194711 -0.462925
vn -0.984315 0.032500 -0.173403
vn -0.985276 -0.056699 0.161296
vn -0.985266 -0.064998 0.158195
vn -0.984319 0.067901 -0.162803
vn -0.985275 -0.030699 0.168196
vn -0.867096 -0.161899 0.471098
vn -0.867134 -0.186307 0.461918
vn -0.985266 -0.064998 0.158195
vn -0.867108 -0.086201 0.490605
vn -0.643898 -0.242699 0.725598
vn -0.643889 -0.280395 0.711888
vn -0.867134 -0.186307 0.461918
vn -0.643915 -0.126203 0.754617
vn -0.342702 -0.291102 0.893205
vn -0.342690 -0.337390 0.876774
vn -0.643889 -0.280395 0.711888
vn -0.342720 -0.147708 0.927753
vn -0.000200 -0.306611 0.951835
vn -0.000200 -0.355995 0.934488
vn -0.342690 -0.337390 0.876774
vn -0.000200 -0.153898 0.988087
vn 0.342407 -0.291106 0.893317
vn 0.342395 -0.337395 0.876887
vn -0.000200 -0.355995 0.934488
vn 0.342386 -0.147794 0.927862
vn 0.643898 -0.242699 0.725598
vn 0.643889 -0.280395 0.711888
vn 0.342395 -0.337395 0.876887
vn 0.643866 -0.126193 0.754660
vn 0.867203 -0.161900 0.470901
vn 0.867199 -0.186300 0.461799
vn 0.643889 -0.280395 0.711888
vn 0.867176 -0.086198 0.490486
vn 0.985298 -0.056600 0.161200
vn 0.985297 -0.065000 0.158000
vn 0.867199 -0.186300 0.461799
vn 0.985309 -0.030700 0.168001
vn 0.984291 0.059299 -0.166298
vn 0.984287 0.067899 -0.162998
vn 0.985297 -0.065000 0.158000
vn 0.984294 0.032600 -0.173499
vn 0.864730 0.170206 -0.472516
vn 0.864707 0.194702 -0.463004
vn 0.984287 0.067899 -0.162998
vn 0.864690 0.094199 -0.493394
vn 0.641325 0.261510 -0.721328
vn 0.641290 0.298895 -0.706689
vn 0.864707 0.194702 -0.463004
vn 0.641285 0.145497 -0.753382
vn 0.341093 0.321393 -0.883381
vn 0.341112 0.367213 -0.865331
vn 0.641290 0.298895 -0.706689
vn 0.341090 0.179295 -0.922773
vn 0.000100 0.342297 -0.939592
vn 0.000100 0.390997 -0.920392
vn 0.341112 0.367213 -0.865331
vn 0.000100 0.390997 -0.920392
vn -0.340988 0.498082 -0.797271
vn -0.341006 0.539110 -0.770114
vn 0.000100 0.573798 -0.818997
vn -0.340994 0.367194 -0.865385
vn -0.641290 0.298895 -0.706689
vn -0.641295 0.439296 -0.629095
vn -0.341006 0.539110 -0.770114
vn -0.641290 0.298895 -0.706689
vn -0.864747 0.194711 -0.462925
vn -0.864746 0.286715 -0.412322
vn -0.641295 0.439296 -0.629095
vn -0.864747 0.194711 -0.462925
vn -0.984319 0.067901 -0.162803
vn -0.984315 0.100202 -0.145202
vn -0.864746 0.286715 -0.412322
vn -0.984319 0.067901 -0.162803
vn -0.985271 -0.081198 0.150495
vn -0.985268 -0.096497 0.141195
vn -0.984315 0.100202 -0.145202
vn -0.985266 -0.064998 0.158195
vn -0.867125 -0.233607 0.439912
vn -0.867115 -0.278305 0.413107
vn -0.985268 -0.096497 0.141195
vn -0.867134 -0.186307 0.461918
vn -0.643880 -0.388288 0.659280
vn -0.643931 -0.422220 0.638031
vn -0.867115 -0.278305 0.413107
vn -0.643889 -0.280395 0.711888
vn -0.342698 -0.470397 0.813194
vn -0.342718 -0.512327 0.787442
vn -0.643931 -0.422220 0.638031
vn -0.342690 -0.337390 0.876774
vn -0.000200 -0.497797 0.867294
vn -0.000200 -0.542480 0.840069
vn -0.342718 -0.512327 0.787442
vn -0.000200 -0.355995 0.934488
vn 0.342389 -0.470485 0.813274
vn 0.342409 -0.512413 0.787521
vn -0.000200 -0.542480 0.840069
vn 0.342395 -0.337395 0.876887
vn 0.643880 -0.388288 0.659280
vn 0.643863 -0.422275 0.638063
vn 0.342409 -0.512413 0.787521
vn 0.643889 -0.280395 0.711888
vn 0.867199 -0.256200 0.426999
vn 0.867200 -0.278200 0.413000
vn 0.643863 -0.422275 0.638063
vn 0.867199 -0.186300 0.461799
vn 0.985308 -0.081101 0.150301
vn 0.985305 -0.096400 0.141001
vn 0.867200 -0.278200 0.413000
vn 0.985297 -0.065000 0.158000
vn 0.984280 0.092598 -0.150397
vn 0.984291 0.100299 -0.145299
vn 0.985305 -0.096400 0.141001
vn 0.984287 0.067899 -0.162998
vn 0.864707 0.264802 -0.426804
vn 0.864710 0.286703 -0.412405
vn 0.984291 0.100299 -0.145299
vn 0.864707 0.194702 -0.463004
vn 0.641300 0.405800 -0.651200
vn 0.641295 0.439296 -0.629095
vn 0.864710 0.286703 -0.412405
vn 0.641290 0.298895 -0.706689
vn 0.341112 0.367213 -0.865331
vn 0.341095 0.539091 -0.770088
vn 0.641295 0.439296 -0.629095
vn 0.341112 0.367213 -0.865331
vn 0.000100 0.390997 -0.920392
vn 0.000100 0.573798 -0.818997
vn 0.341095 0.539091 -0.770088
vn 0.000100 0.573798 -0.818997
vn -0.340988 0.652977 -0.676276
vn -0.340987 0.687474 -0.641176
vn 0.000100 0.731521 -0.681819
vn -0.341006 0.539110 -0.770114
vn -0.641308 0.532306 -0.552607
vn -0.641299 0.560499 -0.523999
vn -0.340987 0.687474 -0.641176
vn -0.641295 0.439296 -0.629095
vn -0.864746 0.286715 -0.412322
vn -0.864727 0.366211 -0.343711
vn -0.641299 0.560499 -0.523999
vn -0.864746 0.286715 -0.412322
vn -0.984317 0.121702 -0.127702
vn -0.984314 0.128202 -0.121202
vn -0.864727 0.366211 -0.343711
vn -0.984315 0.100202 -0.145202
vn -0.985281 -0.103698 0.135897
vn -0.985279 -0.123697 0.117998
vn -0.984314 0.128202 -0.121202
vn -0.985268 -0.096497 0.141195
vn -0.867085 -0.319995 0.381794
vn -0.867121 -0.358109 0.346208
vn -0.985279 -0.123697 0.117998
vn -0.867115 -0.278305 0.413107
vn -0.643913 -0.486610 0.590412
vn -0.643896 -0.545696 0.536296
vn -0.867121 -0.358109 0.346208
vn -0.643931 -0.422220 0.638031
vn -0.342718 -0.512327 0.787442
vn -0.342717 -0.664833 0.663733
vn -0.643896 -0.545696 0.536296
vn -0.342718 -0.512327 0.787442
vn -0.000200 -0.627289 0.778786
vn -0.000200 -0.705304 0.708905
vn -0.342717 -0.664833 0.663733
vn -0.000200 -0.542480 0.840069
vn 0.342393 -0.629287 0.697685
vn 0.342407 -0.664913 0.663813
vn -0.000200 -0.705304 0.708905
vn 0.342409 -0.512413 0.787521
vn 0.643882 -0.486686 0.590383
vn 0.643896 -0.545696 0.536296
vn 0.342407 -0.664913 0.663813
vn 0.643863 -0.422275 0.638063
vn 0.867171 -0.319889 0.381687
vn 0.867206 -0.358003 0.346103
vn 0.643896 -0.545696 0.536296
vn 0.867200 -0.278200 0.413000
vn 0.985305 -0.096400 0.141001
vn 0.985303 -0.123600 0.117900
vn 0.867206 -0.358003 0.346103
vn 0.985305 -0.096400 0.141001
vn 0.984293 0.121799 -0.127799
vn 0.984290 0.128299 -0.121299
vn 0.985303 -0.123600 0.117900
vn 0.984291 0.100299 -0.145299
vn 0.864697 0.347699 -0.362499
vn 0.864697 0.366199 -0.343799
vn 0.984290 0.128299 -0.121299
vn 0.864710 0.286703 -0.412405
vn 0.641308 0.532306 -0.552607
vn 0.641299 0.560499 -0.523999
vn 0.864697 0.366199 -0.343799
vn 0.641295 0.439296 -0.629095
vn 0.341098 0.652897 -0.676297
vn 0.341099 0.687398 -0.641198
vn 0.641299 0.560499 -0.523999
vn 0.341095 0.539091 -0.770088
vn 0.000100 0.694853 -0.719151
vn 0.000100 0.731521 -0.681819
vn 0.341099 0.687398 -0.641198
vn 0.000100 0.731521 -0.681819
vn -0.341009 0.779319 -0.525713
vn -0.341020 0.805747 -0.484228
vn 0.000100 0.857307 -0.514805
vn -0.340987 0.687474 -0.641176
vn -0.641279 0.635579 -0.429886
vn -0.641302 0.657202 -0.396001
vn -0.341020 0.805747 -0.484228
vn -0.641299 0.560499 -0.523999
vn -0.864727 0.366211 -0.343711
vn -0.864737 0.429618 -0.260111
vn -0.641302 0.657202 -0.396001
vn -0.864727 0.366211 -0.343711
vn -0.984317 0.145602 -0.099602
vn -0.984314 0.150602 -0.091901
vn -0.864737 0.429618 -0.260111
vn -0.984314 0.128202 -0.121202
vn -0.985270 -0.140696 0.097197
vn -0.985270 -0.145596 0.089697
vn -0.984314 0.150602 -0.091901
vn -0.985279 -0.123697 0.117998
vn -0.867107 -0.407903 0.285902
vn -0.867099 -0.422300 0.264200
vn -0.985270 -0.145596 0.089697
vn -0.867121 -0.358109 0.346208
vn -0.643895 -0.622896 0.444297
vn -0.643893 -0.645293 0.411095
vn -0.867099 -0.422300 0.264200
vn -0.643896 -0.545696 0.536296
vn -0.342708 -0.760517 0.551512
vn -0.342703 -0.788307 0.511005
vn -0.643893 -0.645293 0.411095
vn -0.342717 -0.664833 0.663733
vn -0.000200 -0.807485 0.589889
vn -0.000200 -0.837274 0.546783
vn -0.342703 -0.788307 0.511005
vn -0.000200 -0.705304 0.708905
vn 0.342398 -0.760595 0.551597
vn 0.342411 -0.788426 0.511017
vn -0.000200 -0.837274 0.546783
vn 0.342407 -0.664913 0.663813
vn 0.643867 -0.622868 0.444377
vn 0.643866 -0.645266 0.411178
vn 0.342411 -0.788426 0.511017
vn 0.643896 -0.545696 0.536296
vn 0.867167 -0.407785 0.285889
vn 0.867184 -0.422192 0.264095
vn 0.643866 -0.645266 0.411178
vn 0.867206 -0.358003 0.346103
vn 0.985307 -0.140501 0.097101
vn 0.985307 -0.145401 0.089601
vn 0.867184 -0.422192 0.264095
vn 0.985303 -0.123600 0.117900
vn 0.984293 0.145699 -0.099699
vn 0.984284 0.150798 -0.091898
vn 0.985307 -0.145401 0.089601
vn 0.984290 0.128299 -0.121299
vn 0.864707 0.415503 -0.282202
vn 0.864700 0.429700 -0.260100
vn 0.984284 0.150798 -0.091898
vn 0.864697 0.366199 -0.343799
vn 0.641306 0.635606 -0.429804
vn 0.641302 0.657202 -0.396001
vn 0.864700 0.429700 -0.260100
vn 0.641299 0.560499 -0.523999
vn 0.341097 0.779293 -0.525695
vn 0.341108 0.805720 -0.484212
vn 0.641302 0.657202 -0.396001
vn 0.341099 0.687398 -0.641198
vn 0.000100 0.829178 -0.558985
vn 0.000100 0.857307 -0.514805
vn 0.341108 0.805720 -0.484212
vn 0.000100 0.857307 -0.514805
vn -0.340998 0.871595 -0.352198
vn -0.341010 0.888825 -0.306109
vn 0.000100 0.945610 -0.325303
vn -0.341020 0.805747 -0.484228
vn -0.641285 0.711084 -0.288293
vn -0.641290 0.725189 -0.250696
vn -0.341010 0.888825 -0.306109
vn -0.641302 0.657202 -0.396001
vn -0.864737 0.429618 -0.260111
vn -0.864733 0.474318 -0.165106
vn -0.641290 0.725189 -0.250696
vn -0.864737 0.429618 -0.260111
vn -0.984318 0.163103 -0.067201
vn -0.984321 0.166404 -0.058501
vn -0.864733 0.474318 -0.165106
vn -0.984314 0.150602 -0.091901
vn -0.985271 -0.157795 0.065898
vn -0.985279 -0.160997 0.057499
vn -0.984321 0.166404 -0.058501
vn -0.985270 -0.145596 0.089697
vn -0.867109 -0.458405 0.194902
vn -0.867104 -0.468002 0.170601
vn -0.985279 -0.160997 0.057499
vn -0.867099 -0.422300 0.264200
vn -0.643921 -0.701623 0.305110
vn -0.643917 -0.716619 0.268007
vn -0.867104 -0.468002 0.170601
vn -0.643893 -0.645293 0.411095
vn -0.342712 -0.858529 0.381413
vn -0.342712 -0.877332 0.335912
vn -0.643917 -0.716619 0.268007
vn -0.342703 -0.788307 0.511005
vn -0.000200 -0.912491 0.409096
vn -0.000200 -0.932684 0.360694
vn -0.342712 -0.877332 0.335912
vn -0.000200 -0.837274 0.546783
vn 0.342418 -0.858644 0.381419
vn 0.342418 -0.877445 0.335917
vn -0.000200 -0.932684 0.360694
vn 0.342411 -0.788426 0.511017
vn 0.643875 -0.701673 0.305088
vn 0.643871 -0.716668 0.267988
vn 0.342418 -0.877445 0.335917
vn 0.643866 -0.645266 0.411178
vn 0.867191 -0.458295 0.194798
vn 0.867169 -0.467883 0.170594
vn 0.643871 -0.716668 0.267988
vn 0.867184 -0.422192 0.264095
vn 0.985308 -0.157601 0.065801
vn 0.985300 -0.160900 0.057400
vn 0.867169 -0.467883 0.170594
vn 0.985307 -0.145401 0.089601
vn 0.984286 0.163298 -0.067199
vn 0.984282 0.166597 -0.058599
vn 0.985300 -0.160900 0.057400
vn 0.984284 0.150798 -0.091898
vn 0.864695 0.465098 -0.189699
vn 0.864692 0.474395 -0.165098
vn 0.984282 0.166597 -0.058599
vn 0.864700 0.429700 -0.260100
vn 0.641285 0.711084 -0.288293
vn 0.641290 0.725189 -0.250696
vn 0.864692 0.474395 -0.165098
vn 0.641302 0.657202 -0.396001
vn 0.341116 0.871541 -0.352217
vn 0.341098 0.888795 -0.306098
vn 0.641290 0.725189 -0.250696
vn 0.341108 0.805720 -0.484212
vn 0.000100 0.927272 -0.374389
vn 0.000100 0.945610 -0.325303
vn 0.341098 0.888795 -0.306098
vn 0.000100 0.945610 -0.325303
vn -0.340991 0.925775 -0.163296
vn -0.341016 0.933045 -0.114606
vn 0.000100 0.992580 -0.121597
vn 0.000100 0.984853 -0.173392
vn -0.341010 0.888825 -0.306109
vn -0.641282 0.755479 -0.134196
vn -0.641275 0.761470 -0.094496
vn -0.341016 0.933045 -0.114606
vn -0.641290 0.725189 -0.250696
vn -0.864733 0.474318 -0.165106
vn -0.864715 0.498309 -0.062901
vn -0.641275 0.761470 -0.094496
vn -0.864733 0.474318 -0.165106
vn -0.984320 0.173503 -0.031801
vn -0.984309 0.175002 -0.022600
vn -0.864715 0.498309 -0.062901
vn -0.984321 0.166404 -0.058501
vn -0.985264 -0.168094 0.031599
vn -0.985268 -0.169494 0.022799
vn -0.984309 0.175002 -0.022600
vn -0.985279 -0.160997 0.057499
vn -0.867114 -0.488908 0.095302
vn -0.867120 -0.493212 0.069602
vn -0.985268 -0.169494 0.022799
vn -0.867104 -0.468002 0.170601
vn -0.643918 -0.749721 0.152604
vn -0.643902 -0.756702 0.113100
vn -0.867120 -0.493212 0.069602
vn -0.643917 -0.716619 0.268007
vn -0.342697 -0.919092 0.194498
vn -0.342700 -0.927999 0.146200
vn -0.643902 -0.756702 0.113100
vn -0.342712 -0.877332 0.335912
vn -0.000200 -0.977615 0.210403
vn -0.000200 -0.987279 0.158997
vn -0.342700 -0.927999 0.146200
vn -0.000200 -0.932684 0.360694
vn 0.342394 -0.919184 0.194597
vn 0.342403 -0.928108 0.146201
vn -0.000200 -0.987279 0.158997
vn 0.342418 -0.877445 0.335917
vn 0.643870 -0.749765 0.152593
vn 0.643895 -0.756694 0.113199
vn 0.342403 -0.928108 0.146201
vn 0.643871 -0.716668 0.267988
vn 0.867181 -0.488789 0.095298
vn 0.867188 -0.493093 0.069599
vn 0.643895 -0.756694 0.113199
vn 0.867169 -0.467883 0.170594
vn 0.985298 -0.167900 0.031600
vn 0.985303 -0.169301 0.022700
vn 0.867188 -0.493093 0.069599
vn 0.985300 -0.160900 0.057400
vn 0.984286 0.173697 -0.031800
vn 0.984289 0.175098 -0.022700
vn 0.985303 -0.169301 0.022700
vn 0.984282 0.166597 -0.058599
vn 0.864725 0.494314 -0.088903
vn 0.864715 0.498309 -0.062901
vn 0.984289 0.175098 -0.022700
vn 0.864692 0.474395 -0.165098
vn 0.641282 0.755479 -0.134196
vn 0.641330 0.761435 -0.094404
vn 0.864715 0.498309 -0.062901
vn 0.641290 0.725189 -0.250696
vn 0.341111 0.925729 -0.163305
vn 0.341105 0.933013 -0.114602
vn 0.641330 0.761435 -0.094404
vn 0.341098 0.888795 -0.306098
vn 0.000100 0.974427 -0.224706
vn 0.000100 0.984853 -0.173392
vn 0.000100 0.992580 -0.121597
vn 0.341105 0.933013 -0.114602
vn 0.000100 0.997582 -0.069499
vn 0.000100 0.992580 -0.121597
vn -0.341016 0.933045 -0.114606
vn -0.340217 0.939448 -0.041102
vn 0.000100 0.999058 -0.043398
vn -0.341016 0.933045 -0.114606
vn -0.641277 0.765372 -0.054498
vn -0.640113 0.767515 -0.034301
vn -0.340217 0.939448 -0.041102
vn -0.641275 0.761470 -0.094496
vn -0.864715 0.498309 -0.062901
vn -0.863613 0.503608 -0.023500
vn -0.640113 0.767515 -0.034301
vn -0.864715 0.498309 -0.062901
vn -0.984309 0.175002 -0.022600
vn -0.983844 0.178808 -0.008900
vn -0.863613 0.503608 -0.023500
vn -0.984309 0.175002 -0.022600
vn -0.985278 -0.170396 0.013900
vn -0.985795 -0.167699 0.009200
vn -0.983844 0.178808 -0.008900
vn -0.985268 -0.169494 0.022799
vn -0.867106 -0.496203 0.043700
vn -0.868705 -0.494403 0.030300
vn -0.985795 -0.167699 0.009200
vn -0.867120 -0.493212 0.069602
vn -0.643890 -0.761589 0.073399
vn -0.646109 -0.761410 0.052901
vn -0.868705 -0.494403 0.030300
vn -0.643902 -0.756702 0.113100
vn -0.342694 -0.934385 0.097398
vn -0.344406 -0.936017 0.072501
vn -0.646109 -0.761410 0.052901
vn -0.342700 -0.927999 0.146200
vn -0.000200 -0.994248 0.107105
vn -0.000200 -0.996722 0.080902
vn -0.344406 -0.936017 0.072501
vn -0.000200 -0.987279 0.158997
vn 0.342403 -0.928108 0.146201
vn 0.344097 -0.936092 0.072999
vn -0.000200 -0.996722 0.080902
vn 0.342403 -0.928108 0.146201
vn 0.643895 -0.756694 0.113199
vn 0.646026 -0.761431 0.053602
vn 0.344097 -0.936092 0.072999
vn 0.643895 -0.756694 0.113199
vn 0.867174 -0.496085 0.043699
vn 0.868759 -0.494277 0.030799
vn 0.646026 -0.761431 0.053602
vn 0.867188 -0.493093 0.069599
vn 0.985313 -0.170202 0.013800
vn 0.985827 -0.167505 0.009400
vn 0.868759 -0.494277 0.030799
vn 0.985303 -0.169301 0.022700
vn 0.984280 0.176096 -0.013500
vn 0.983808 0.179001 -0.009000
vn 0.985827 -0.167505 0.009400
vn 0.984289 0.175098 -0.022700
vn 0.864720 0.500911 -0.036701
vn 0.863607 0.503604 -0.023800
vn 0.983808 0.179001 -0.009000
vn 0.864715 0.498309 -0.062901
vn 0.641326 0.765331 -0.054502
vn 0.640106 0.767507 -0.034600
vn 0.863607 0.503604 -0.023800
vn 0.641330 0.761435 -0.094404
vn 0.341105 0.933013 -0.114602
vn 0.341109 0.937725 -0.065702
vn 0.340304 0.939412 -0.041201
vn 0.640106 0.767507 -0.034600
vn 0.341109 0.937725 -0.065702
vn 0.341105 0.933013 -0.114602
vn 0.000100 0.992580 -0.121597
vn 0.000100 0.997582 -0.069499
vn 0.000100 0.999058 -0.043398
vn 0.340304 0.939412 -0.041201
vn 0.000000 0.269103 -0.963111
vn -0.092001 0.252902 -0.963108
vn -0.092001 0.252902 -0.963108
vn 0.000000 0.269103 -0.963111
vn -0.092001 0.252902 -0.963108
vn -0.172999 0.206199 -0.963096
vn -0.172999 0.206199 -0.963096
vn -0.092001 0.252902 -0.963108
vn -0.172999 0.206199 -0.963096
vn -0.233098 0.134599 -0.963093
vn -0.233098 0.134599 -0.963093
vn -0.172999 0.206199 -0.963096
vn -0.233098 0.134599 -0.963093
vn -0.265004 0.046701 -0.963116
vn -0.265004 0.046701 -0.963116
vn -0.233098 0.134599 -0.963093
vn -0.265004 0.046701 -0.963116
vn -0.265004 -0.046701 -0.963116
vn -0.265004 -0.046701 -0.963116
vn -0.265004 0.046701 -0.963116
vn -0.265004 -0.046701 -0.963116
vn -0.233098 -0.134599 -0.963093
vn -0.233098 -0.134599 -0.963093
vn -0.265004 -0.046701 -0.963116
vn -0.233098 -0.134599 -0.963093
vn -0.172999 -0.206199 -0.963096
vn -0.172999 -0.206199 -0.963096
vn -0.233098 -0.134599 -0.963093
vn -0.172999 -0.206199 -0.963096
vn -0.092001 -0.252902 -0.963108
vn -0.092001 -0.252902 -0.963108
vn -0.172999 -0.206199 -0.963096
vn -0.092001 -0.252902 -0.963108
vn 0.000000 -0.269103 -0.963111
vn 0.000000 -0.269103 -0.963111
vn -0.092001 -0.252902 -0.963108
vn 0.000000 -0.269103 -0.963111
vn 0.092001 -0.252902 -0.963108
vn 0.092001 -0.252902 -0.963108
vn 0.000000 -0.269103 -0.963111
vn 0.092001 -0.252902 -0.963108
vn 0.172999 -0.206199 -0.963096
vn 0.172999 -0.206199 -0.963096
vn 0.092001 -0.252902 -0.963108
vn 0.172999 -0.206199 -0.963096
vn 0.233098 -0.134599 -0.963093
vn 0.233098 -0.134599 -0.963093
vn 0.172999 -0.206199 -0.963096
vn 0.233098 -0.134599 -0.963093
vn 0.265004 -0.046701 -0.963116
vn 0.265004 -0.046701 -0.963116
vn 0.233098 -0.134599 -0.963093
vn 0.265004 -0.046701 -0.963116
vn 0.265004 0.046701 -0.963116
vn 0.265004 0.046701 -0.963116
vn 0.265004 -0.046701 -0.963116
vn 0.265004 0.046701 -0.963116
vn 0.233098 0.134599 -0.963093
vn 0.233098 0.134599 -0.963093
vn 0.265004 0.046701 -0.963116
vn 0.233098 0.134599 -0.963093
vn 0.172999 0.206199 -0.963096
vn 0.172999 0.206199 -0.963096
vn 0.233098 0.134599 -0.963093
vn 0.172999 0.206199 -0.963096
vn 0.092001 0.252902 -0.963108
vn 0.092001 0.252902 -0.963108
vn 0.172999 0.206199 -0.963096
vn 0.092001 0.252902 -0.963108
vn 0.000000 0.269103 -0.963111
vn 0.000000 0.269103 -0.963111
vn 0.092001 0.252902 -0.963108
vn 0.000000 1.000000 0.000000
vn -0.342000 0.939700 0.000000
vn -0.342000 0.939700 0.000000
vn 0.000000 1.000000 0.000000
vn -0.342000 0.939700 0.000000
vn -0.642817 0.766020 0.000000
vn -0.642817 0.766020 0.000000
vn -0.342000 0.939700 0.000000
vn -0.642817 0.766020 0.000000
vn -0.866019 0.500011 0.000000
vn -0.866019 0.500011 0.000000
vn -0.642817 0.766020 0.000000
vn -0.866019 0.500011 0.000000
vn -0.984816 0.173603 0.000000
vn -0.984816 0.173603 0.000000
vn -0.866019 0.500011 0.000000
vn -0.984816 0.173603 0.000000
vn -0.984816 -0.173603 0.000000
vn -0.984816 -0.173603 0.000000
vn -0.984816 0.173603 0.000000
vn -0.984816 -0.173603 0.000000
vn -0.866019 -0.500011 0.000000
vn -0.866019 -0.500011 0.000000
vn -0.984816 -0.173603 0.000000
vn -0.866019 -0.500011 0.000000
vn -0.642817 -0.766020 0.000000
vn -0.642817 -0.766020 0.000000
vn -0.866019 -0.500011 0.000000
vn -0.642817 -0.766020 0.000000
vn -0.342000 -0.939700 0.000000
vn -0.342000 -0.939700 0.000000
vn -0.642817 -0.766020 0.000000
vn -0.342000 -0.939700 0.000000
vn 0.000000 -1.000000 0.000000
vn 0.000000 -1.000000 0.000000
vn -0.342000 -0.939700 0.000000
vn 0.000000 -1.000000 0.000000
vn 0.342000 -0.939700 0.000000
vn 0.342000 -0.939700 0.000000
vn 0.000000 -1.000000 0.000000
vn 0.342000 -0.939700 0.000000
vn 0.642817 -0.766020 0.000000
vn 0.642817 -0.766020 0.000000
vn 0.342000 -0.939700 0.000000
vn 0.642817 -0.766020 0.000000
vn 0.866019 -0.500011 0.000000
vn 0.866019 -0.500011 0.000000
vn 0.642817 -0.766020 0.000000
vn 0.866019 -0.500011 0.000000
vn 0.984816 -0.173603 0.000000
vn 0.984816 -0.173603 0.000000
vn 0.866019 -0.500011 0.000000
vn 0.984816 -0.173603 0.000000
vn 0.984816 0.173603 0.000000
vn 0.984816 0.173603 0.000000
vn 0.984816 -0.173603 0.000000
vn 0.984816 0.173603 0.000000
vn 0.866019 0.500011 0.000000
vn 0.866019 0.500011 0.000000
vn 0.984816 0.173603 0.000000
vn 0.866019 0.500011 0.000000
vn 0.642817 0.766020 0.000000
vn 0.642817 0.766020 0.000000
vn 0.866019 0.500011 0.000000
vn 0.642817 0.766020 0.000000
vn 0.342000 0.939700 0.000000
vn 0.342000 0.939700 0.000000
vn 0.642817 0.766020 0.000000
vn 0.342000 0.939700 0.000000
vn 0.000000 1.000000 0.000000
vn 0.000000 1.000000 0.000000
vn 0.342000 0.939700 0.000000
vn -0.066701 0.980810 -0.183202
vn 0.000000 0.980803 -0.195001
vn 0.000000 0.980803 -0.195001
vn -0.066701 0.980810 -0.183202
vn -0.125303 0.980820 -0.149303
vn -0.066701 0.980810 -0.183202
vn -0.066701 0.980810 -0.183202
vn -0.125303 0.980820 -0.149303
vn -0.168803 0.980815 -0.097502
vn -0.125303 0.980820 -0.149303
vn -0.125303 0.980820 -0.149303
vn -0.168803 0.980815 -0.097502
vn -0.192002 0.980809 -0.033900
vn -0.168803 0.980815 -0.097502
vn -0.168803 0.980815 -0.097502
vn -0.192002 0.980809 -0.033900
vn -0.192002 0.980809 0.033900
vn -0.192002 0.980809 -0.033900
vn -0.192002 0.980809 -0.033900
vn -0.192002 0.980809 0.033900
vn -0.168803 0.980815 0.097502
vn -0.192002 0.980809 0.033900
vn -0.192002 0.980809 0.033900
vn -0.168803 0.980815 0.097502
vn -0.125303 0.980820 0.149303
vn -0.168803 0.980815 0.097502
vn -0.168803 0.980815 0.097502
vn -0.125303 0.980820 0.149303
vn -0.066701 0.980810 0.183202
vn -0.125303 0.980820 0.149303
vn -0.125303 0.980820 0.149303
vn -0.066701 0.980810 0.183202
vn 0.000000 0.980803 0.195001
vn -0.066701 0.980810 0.183202
vn -0.066701 0.980810 0.183202
vn 0.000000 0.980803 0.195001
vn 0.066701 0.980810 0.183202
vn 0.000000 0.980803 0.195001
vn 0.000000 0.980803 0.195001
vn 0.066701 0.980810 0.183202
vn 0.125303 0.980820 0.149303
vn 0.066701 0.980810 0.183202
vn 0.066701 0.980810 0.183202
vn 0.125303 0.980820 0.149303
vn 0.168803 0.980815 0.097502
vn 0.125303 0.980820 0.149303
vn 0.125303 0.980820 0.149303
vn 0.168803 0.980815 0.097502
vn 0.192002 0.980809 0.033900
vn 0.168803 0.980815 0.097502
vn 0.168803 0.980815 0.097502
vn 0.192002 0.980809 0.033900
vn 0.192002 0.980809 -0.033900
vn 0.192002 0.980809 0.033900
vn 0.192002 0.980809 0.033900
vn 0.192002 0.980809 -0.033900
vn 0.168803 0.980815 -0.097502
vn 0.192002 0.980809 -0.033900
vn 0.192002 0.980809 -0.033900
vn 0.168803 0.980815 -0.097502
vn 0.125303 0.980820 -0.149303
vn 0.168803 0.980815 -0.097502
vn 0.168803 0.980815 -0.097502
vn 0.125303 0.980820 -0.149303
vn 0.066701 0.980810 -0.183202
vn 0.125303 0.980820 -0.149303
vn 0.125303 0.980820 -0.149303
vn 0.066701 0.980810 -0.183202
vn 0.000000 0.980803 -0.195001
vn 0.066701 0.980810 -0.183202
vn 0.066701 0.980810 -0.183202
vn 0.000000 0.980803 -0.195001
vn -0.342000 0.000000 -0.939700
vn 0.000000 0.000000 -1.000000
vn 0.000000 0.000000 -1.000000
vn -0.342000 0.000000 -0.939700
vn -0.642817 0.000000 -0.766020
vn -0.342000 0.000000 -0.939700
vn -0.342000 0.000000 -0.939700
vn -0.642817 0.000000 -0.766020
vn -0.866019 0.000000 -0.500011
vn -0.642817 0.000000 -0.766020
vn -0.642817 0.000000 -0.766020
vn -0.866019 0.000000 -0.500011
vn -0.984816 0.000000 -0.173603
vn -0.866019 0.000000 -0.500011
vn -0.866019 0.000000 -0.500011
vn -0.984816 0.000000 -0.173603
vn -0.984816 0.000000 0.173603
vn -0.984816 0.000000 -0.173603
vn -0.984816 0.000000 -0.173603
vn -0.984816 0.000000 0.173603
vn -0.866019 0.000000 0.500011
vn -0.984816 0.000000 0.173603
vn -0.984816 0.000000 0.173603
vn -0.866019 0.000000 0.500011
vn -0.642817 0.000000 0.766020
vn -0.866019 0.000000 0.500011
vn -0.866019 0.000000 0.500011
vn -0.642817 0.000000 0.766020
vn -0.342000 0.000000 0.939700
vn -0.642817 0.000000 0.766020
vn -0.642817 0.000000 0.766020
vn -0.342000 0.000000 0.939700
vn 0.000000 0.000000 1.000000
vn -0.342000 0.000000 0.939700
vn -0.342000 0.000000 0.939700
vn 0.000000 0.000000 1.000000
vn 0.342000 0.000000 0.939700
vn 0.000000 0.000000 1.000000
vn 0.000000 0.000000 1.000000
vn 0.342000 0.000000 0.939700
vn 0.642817 0.000000 0.766020
vn 0.342000 0.000000 0.939700
vn 0.342000 0.000000 0.939700
vn 0.642817 0.000000 0.766020
vn 0.866019 0.000000 0.500011
vn 0.642817 0.000000 0.766020
vn 0.642817 0.000000 0.766020
vn 0.866019 0.000000 0.500011
vn 0.984816 0.000000 0.173603
vn 0.866019 0.000000 0.500011
vn 0.866019 0.000000 0.500011
vn 0.984816 0.000000 0.173603
vn 0.984816 0.000000 -0.173603
vn 0.984816 0.000000 0.173603
vn 0.984816 0.000000 0.173603
vn 0.984816 0.000000 -0.173603
vn 0.866019 0.000000 -0.500011
vn 0.984816 0.000000 -0.173603
vn 0.984816 0.000000 -0.173603
vn 0.866019 0.000000 -0.500011
vn 0.642817 0.000000 -0.766020
vn 0.866019 0.000000 -0.500011
vn 0.866019 0.000000 -0.500011
vn 0.642817 0.000000 -0.766020
vn 0.342000 0.000000 -0.939700
vn 0.642817 0.000000 -0.766020
vn 0.642817 0.000000 -0.766020
vn 0.342000 0.000000 -0.939700
vn 0.000000 0.000000 -1.000000
vn 0.342000 0.000000 -0.939700
vn 0.342000 0.000000 -0.939700
vn 0.000000 0.000000 -1.000000
s off
g kk:Object54 kk:polySurface1949 prop_pipe3 kk:polySurface1
usemtl kk:blinn6SG
f 1/1/1 2/2/2 3/3/3 4/4/4
f 2/2/5 5/5/6 6/6/7 3/3/8
f 5/5/9 7/7/10 8/8/11 6/6/12
f 7/7/13 9/9/14 10/10/15 8/8/16
f 9/9/17 11/11/18 12/12/19 10/10/20
f 11/11/21 13/13/22 14/14/23 12/12/24
f 13/13/25 15/15/26 16/16/27 14/14/28
f 15/15/29 17/17/30 18/18/31 16/16/32
f 17/17/33 19/19/34 20/20/35 18/18/36
f 19/19/37 21/21/38 22/22/39 20/20/40
f 21/21/41 23/23/42 24/24/43 22/22/44
f 23/23/45 25/25/46 26/26/47 24/24/48
f 25/25/49 27/27/50 28/28/51 26/26/52
f 27/27/53 29/29/54 30/30/55 28/28/56
f 29/29/57 31/31/58 32/32/59 30/30/60
f 31/31/61 33/33/62 34/34/63 32/32/64
f 33/33/65 35/35/66 36/36/67 34/34/68
f 35/35/69 1/1/70 4/4/71 36/36/72
f 4/4/73 3/3/74 37/37/75 38/38/76
f 3/3/77 6/6/78 39/39/79 37/37/80
f 6/6/81 8/8/82 40/40/83 39/39/84
f 8/8/85 10/10/86 41/41/87 40/40/88
f 10/10/89 12/12/90 42/42/91 41/41/92
f 12/12/93 14/14/94 43/43/95 42/42/96
f 14/14/97 16/16/98 44/44/99 43/43/100
f 16/16/101 18/18/102 45/45/103 44/44/104
f 18/18/105 20/20/106 46/46/107 45/45/108
f 20/20/109 22/22/110 47/47/111 46/46/112
f 22/22/113 24/24/114 48/48/115 47/47/116
f 24/24/117 26/26/118 49/49/119 48/48/120
f 26/26/121 28/28/122 50/50/123 49/49/124
f 28/28/125 30/30/126 51/51/127 50/50/128
f 30/30/129 32/32/130 52/52/131 51/51/132
f 32/32/133 34/34/134 53/53/135 52/52/136
f 34/34/137 36/36/138 54/54/139 53/53/140
f 36/36/141 4/4/142 38/38/143 54/54/144
f 38/38/145 37/37/146 55/55/147 56/56/148
f 37/37/149 39/39/150 57/57/151 55/55/152
f 39/39/153 40/40/154 58/58/155 57/57/156
f 40/40/157 41/41/158 59/59/159 58/58/160
f 41/41/161 42/42/162 60/60/163 59/59/164
f 42/42/165 43/43/166 61/61/167 60/60/168
f 43/43/169 44/44/170 62/62/171 61/61/172
f 44/44/173 45/45/174 63/63/175 62/62/176
f 45/45/177 46/46/178 64/64/179 63/63/180
f 46/46/181 47/47/182 65/65/183 64/64/184
f 47/47/185 48/48/186 66/66/187 65/65/188
f 48/48/189 49/49/190 67/67/191 66/66/192
f 49/49/193 50/50/194 68/68/195 67/67/196
f 50/50/197 51/51/198 69/69/199 68/68/200
f 51/51/201 52/52/202 70/70/203 69/69/204
f 52/52/205 53/53/206 71/71/207 70/70/208
f 53/53/209 54/54/210 72/72/211 71/71/212
f 54/54/213 38/38/214 56/56/215 72/72/216
f 56/56/217 55/55/218 73/73/219 74/74/220
f 55/55/221 57/57/222 75/75/223 73/73/224
f 57/57/225 58/58/226 76/76/227 75/75/228
f 58/58/229 59/59/230 77/77/231 76/76/232
f 59/59/233 60/60/234 78/78/235 77/77/236
f 60/60/237 61/61/238 79/79/239 78/78/240
f 61/61/241 62/62/242 80/80/243 79/79/244
f 62/62/245 63/63/246 81/81/247 80/80/248
f 63/63/249 64/64/250 82/82/251 81/81/252
f 64/64/253 65/65/254 83/83/255 82/82/256
f 65/65/257 66/66/258 84/84/259 83/83/260
f 66/66/261 67/67/262 85/85/263 84/84/264
f 67/67/265 68/68/266 86/86/267 85/85/268
f 68/68/269 69/69/270 87/87/271 86/86/272
f 69/69/273 70/70/274 88/88/275 87/87/276
f 70/70/277 71/71/278 89/89/279 88/88/280
f 71/71/281 72/72/282 90/90/283 89/89/284
f 72/72/285 56/56/286 74/74/287 90/90/288
f 74/74/289 73/73/290 91/91/291 92/92/292
f 73/73/293 75/75/294 93/93/295 91/91/296
f 75/75/297 76/76/298 94/94/299 93/93/300
f 76/76/301 77/77/302 95/95/303 94/94/304
f 77/77/305 78/78/306 96/96/307 95/95/308
f 78/78/309 79/79/310 97/97/311 96/96/312
f 79/79/313 80/80/314 98/98/315 97/97/316
f 80/80/317 81/81/318 99/99/319 98/98/320
f 81/81/321 82/82/322 100/100/323 99/99/324
f 82/82/325 83/83/326 101/101/327 100/100/328
f 83/83/329 84/84/330 102/102/331 101/101/332
f 84/84/333 85/85/334 103/103/335 102/102/336
f 85/85/337 86/86/338 104/104/339 103/103/340
f 86/86/341 87/87/342 105/105/343 104/104/344
f 87/87/345 88/88/346 106/106/347 105/105/348
f 88/88/349 89/89/350 107/107/351 106/106/352
f 89/89/353 90/90/354 108/108/355 107/107/356
f 90/90/357 74/74/358 92/92/359 108/108/360
f 92/92/361 91/91/362 109/109/363 110/110/364
f 91/91/365 93/93/366 111/111/367 109/109/368
f 93/93/369 94/94/370 112/112/371 111/111/372
f 94/94/373 95/95/374 113/113/375 112/112/376
f 95/95/377 96/96/378 114/114/379 113/113/380
f 96/96/381 97/97/382 115/115/383 114/114/384
f 97/97/385 98/98/386 116/116/387 115/115/388
f 98/98/389 99/99/390 117/117/391 116/116/392
f 99/99/393 100/100/394 118/118/395 117/117/396
f 100/100/397 101/101/398 119/119/399 118/118/400
f 101/101/401 102/102/402 120/120/403 119/119/404
f 102/102/405 103/103/406 121/121/407 120/120/408
f 103/103/409 104/104/410 122/122/411 121/121/412
f 104/104/413 105/105/414 123/123/415 122/122/416
f 105/105/417 106/106/418 124/124/419 123/123/420
f 106/106/421 107/107/422 125/125/423 124/124/424
f 107/107/425 108/108/426 126/126/427 125/125/428
f 108/108/429 92/92/430 110/110/431 126/126/432
f 110/110/433 109/109/434 127/127/435 128/128/436
f 109/109/437 111/111/438 129/129/439 127/127/440
f 111/111/441 112/112/442 130/130/443 129/129/444
f 112/112/445 113/113/446 131/131/447 130/130/448
f 113/113/449 114/114/450 132/132/451 131/131/452
f 114/114/453 115/115/454 133/133/455 132/132/456
f 115/115/457 116/116/458 134/134/459 133/133/460
f 116/116/461 117/117/462 135/135/463 134/134/464
f 117/117/465 118/118/466 136/136/467 135/135/468
f 118/118/469 119/119/470 137/137/471 136/136/472
f 119/119/473 120/120/474 138/138/475 137/137/476
f 120/120/477 121/121/478 139/139/479 138/138/480
f 121/121/481 122/122/482 140/140/483 139/139/484
f 122/122/485 123/123/486 141/141/487 140/140/488
f 123/123/489 124/124/490 142/142/491 141/141/492
f 124/124/493 125/125/494 143/143/495 142/142/496
f 125/125/497 126/126/498 144/144/499 143/143/500
f 126/126/501 110/110/502 128/128/503 144/144/504
f 128/128/505 127/127/506 146/145/507 147/146/508 145/147/509
f 127/127/510 129/129/511 148/148/512 146/145/513
f 129/129/514 130/130/515 149/149/516 148/148/517
f 130/130/518 131/131/519 150/150/520 149/149/521
f 131/131/522 132/132/523 151/151/524 150/150/525
f 132/132/526 133/133/527 152/152/528 151/151/529
f 133/133/530 134/134/531 153/153/532 152/152/533
f 134/134/534 135/135/535 154/154/536 153/153/537
f 135/135/538 136/136/539 155/155/540 154/154/541
f 136/136/542 137/137/543 156/156/544 155/155/545
f 137/137/546 138/138/547 157/157/548 156/156/549
f 138/138/550 139/139/551 158/158/552 157/157/553
f 139/139/554 140/140/555 159/159/556 158/158/557
f 140/140/558 141/141/559 160/160/560 159/159/561
f 141/141/562 142/142/563 161/161/564 160/160/565
f 142/142/566 143/143/567 162/162/568 161/161/569
f 143/143/570 144/144/571 163/163/572 162/162/573
f 144/144/574 128/128/575 145/147/576 147/146/577 163/163/578
f 164/164/579 147/146/580 146/145/581 166/165/582 167/166/583
f 146/145/584 148/148/585 168/167/586 166/165/587
f 148/148/588 149/149/589 169/168/590 168/167/591
f 149/149/592 150/150/593 170/169/594 169/168/595
f 150/150/596 151/151/597 171/170/598 170/169/599
f 151/151/600 152/152/601 172/171/602 171/170/603
f 152/152/604 153/153/605 173/172/606 172/171/607
f 153/153/608 154/154/609 174/173/610 173/172/611
f 154/154/612 155/155/613 175/174/614 174/173/615
f 155/155/616 156/156/617 176/175/618 175/174/619
f 156/156/620 157/157/621 177/176/622 176/175/623
f 157/157/624 158/158/625 178/177/626 177/176/627
f 158/158/628 159/159/629 179/178/630 178/177/631
f 159/159/632 160/160/633 180/179/634 179/178/635
f 160/160/636 161/161/637 181/180/638 180/179/639
f 161/161/640 162/162/641 182/181/642 181/180/643
f 162/162/644 163/163/645 165/182/646 183/183/647 182/181/648
f 165/182/649 163/163/650 147/146/651 164/164/652 167/166/653 183/183/654
f 167/166/655 166/165/656 184/184/657 185/185/658
f 166/165/659 168/167/660 186/186/661 184/184/662
f 168/167/663 169/168/664 187/187/665 186/186/666
f 169/168/667 170/169/668 188/188/669 187/187/670
f 170/169/671 171/170/672 189/189/673 188/188/674
f 171/170/675 172/171/676 190/190/677 189/189/678
f 172/171/679 173/172/680 191/191/681 190/190/682
f 173/172/683 174/173/684 192/192/685 191/191/686
f 174/173/687 175/174/688 193/193/689 192/192/690
f 175/174/691 176/175/692 194/194/693 193/193/694
f 176/175/695 177/176/696 195/195/697 194/194/698
f 177/176/699 178/177/700 196/196/701 195/195/702
f 178/177/703 179/178/704 197/197/705 196/196/706
f 179/178/707 180/179/708 198/198/709 197/197/710
f 180/179/711 181/180/712 199/199/713 198/198/714
f 181/180/715 182/181/716 200/200/717 199/199/718
f 182/181/719 183/183/720 201/201/721 200/200/722
f 183/183/723 167/166/724 185/185/725 201/201/726
f 185/185/727 184/184/728 202/202/729 203/203/730
f 184/184/731 186/186/732 204/204/733 202/202/734
f 186/186/735 187/187/736 205/205/737 204/204/738
f 187/187/739 188/188/740 206/206/741 205/205/742
f 188/188/743 189/189/744 207/207/745 206/206/746
f 189/189/747 190/190/748 208/208/749 207/207/750
f 190/190/751 191/191/752 209/209/753 208/208/754
f 191/191/755 192/192/756 210/210/757 209/209/758
f 192/192/759 193/193/760 211/211/761 210/210/762
f 193/193/763 194/194/764 212/212/765 211/211/766
f 194/194/767 195/195/768 213/213/769 212/212/770
f 195/195/771 196/196/772 214/214/773 213/213/774
f 196/196/775 197/197/776 215/215/777 214/214/778
f 197/197/779 198/198/780 216/216/781 215/215/782
f 198/198/783 199/199/784 217/217/785 216/216/786
f 199/199/787 200/200/788 218/218/789 217/217/790
f 200/200/791 201/201/792 219/219/793 218/218/794
f 201/201/795 185/185/796 203/203/797 219/219/798
f 2/2/799 1/1/800 220/220/801 221/221/802
f 5/5/803 2/2/804 221/221/805 222/222/806
f 7/7/807 5/5/808 222/222/809 223/223/810
f 9/9/811 7/7/812 223/223/813 224/224/814
f 11/11/815 9/9/816 224/224/817 225/225/818
f 13/13/819 11/11/820 225/225/821 226/226/822
f 15/15/823 13/13/824 226/226/825 227/227/826
f 17/17/827 15/15/828 227/227/829 228/228/830
f 19/19/831 17/17/832 228/228/833 229/229/834
f 21/21/835 19/19/836 229/229/837 230/230/838
f 23/23/839 21/21/840 230/230/841 231/231/842
f 25/25/843 23/23/844 231/231/845 232/232/846
f 27/27/847 25/25/848 232/232/849 233/233/850
f 29/29/851 27/27/852 233/233/853 234/234/854
f 31/31/855 29/29/856 234/234/857 235/235/858
f 33/33/859 31/31/860 235/235/861 236/236/862
f 35/35/863 33/33/864 236/236/865 237/237/866
f 1/1/867 35/35/868 237/237/869 220/220/870
f 221/221/871 220/220/872 238/238/873 239/239/874
f 222/222/875 221/221/876 239/239/877 240/240/878
f 223/223/879 222/222/880 240/240/881 241/241/882
f 224/224/883 223/223/884 241/241/885 242/242/886
f 225/225/887 224/224/888 242/242/889 243/243/890
f 226/226/891 225/225/892 243/243/893 244/244/894
f 227/227/895 226/226/896 244/244/897 245/245/898
f 228/228/899 227/227/900 245/245/901 246/246/902
f 229/229/903 228/228/904 246/246/905 247/247/906
f 230/230/907 229/229/908 247/247/909 248/248/910
f 231/231/911 230/230/912 248/248/913 249/249/914
f 232/232/915 231/231/916 249/249/917 250/250/918
f 233/233/919 232/232/920 250/250/921 251/251/922
f 234/234/923 233/233/924 251/251/925 252/252/926
f 235/235/927 234/234/928 252/252/929 253/253/930
f 236/236/931 235/235/932 253/253/933 254/254/934
f 237/237/935 236/236/936 254/254/937 255/255/938
f 220/220/939 237/237/940 255/255/941 238/238/942
